src/sim/stage_decode/dump_file.vcd
$date
	Mon Jan  3 20:23:46 2022
$end
$version
	QuestaSim Version 10.7c
$end
$timescale
	1ps
$end

$scope module tb_module $end

$scope module stage_alu_inst $end
$var wire 1 ! clk $end
$var wire 1 " reset_n $end
$var wire 1 # pc_i [31] $end
$var wire 1 $ pc_i [30] $end
$var wire 1 % pc_i [29] $end
$var wire 1 & pc_i [28] $end
$var wire 1 ' pc_i [27] $end
$var wire 1 ( pc_i [26] $end
$var wire 1 ) pc_i [25] $end
$var wire 1 * pc_i [24] $end
$var wire 1 + pc_i [23] $end
$var wire 1 , pc_i [22] $end
$var wire 1 - pc_i [21] $end
$var wire 1 . pc_i [20] $end
$var wire 1 / pc_i [19] $end
$var wire 1 0 pc_i [18] $end
$var wire 1 1 pc_i [17] $end
$var wire 1 2 pc_i [16] $end
$var wire 1 3 pc_i [15] $end
$var wire 1 4 pc_i [14] $end
$var wire 1 5 pc_i [13] $end
$var wire 1 6 pc_i [12] $end
$var wire 1 7 pc_i [11] $end
$var wire 1 8 pc_i [10] $end
$var wire 1 9 pc_i [9] $end
$var wire 1 : pc_i [8] $end
$var wire 1 ; pc_i [7] $end
$var wire 1 < pc_i [6] $end
$var wire 1 = pc_i [5] $end
$var wire 1 > pc_i [4] $end
$var wire 1 ? pc_i [3] $end
$var wire 1 @ pc_i [2] $end
$var wire 1 A pc_i [1] $end
$var wire 1 B pc_i [0] $end
$var reg 32 C pc_br_o [31:0] $end
$var wire 1 D rd_i [4] $end
$var wire 1 E rd_i [3] $end
$var wire 1 F rd_i [2] $end
$var wire 1 G rd_i [1] $end
$var wire 1 H rd_i [0] $end
$var reg 5 I rd_o [4:0] $end
$var wire 1 J rd_dc_o [4] $end
$var wire 1 K rd_dc_o [3] $end
$var wire 1 L rd_dc_o [2] $end
$var wire 1 M rd_dc_o [1] $end
$var wire 1 N rd_dc_o [0] $end
$var wire 1 O ctrl_op_i $end
$var wire 1 P ctrl_ld_i $end
$var reg 1 Q ctrl_ld_o $end
$var wire 1 R ctrl_st_i $end
$var reg 1 S ctrl_st_o $end
$var wire 1 T ctrl_jm_i $end
$var reg 1 U ctrl_jm_o $end
$var wire 1 V ctrl_br_i $end
$var reg 1 W ctrl_br_o $end
$var wire 1 X ctrl_reg_write_i $end
$var reg 1 Y ctrl_reg_write_o $end
$var wire 1 Z ctrl_opcode_i [6] $end
$var wire 1 [ ctrl_opcode_i [5] $end
$var wire 1 \ ctrl_opcode_i [4] $end
$var wire 1 ] ctrl_opcode_i [3] $end
$var wire 1 ^ ctrl_opcode_i [2] $end
$var wire 1 _ ctrl_opcode_i [1] $end
$var wire 1 ` ctrl_opcode_i [0] $end
$var wire 1 a ctrl_funct7_i [6] $end
$var wire 1 b ctrl_funct7_i [5] $end
$var wire 1 c ctrl_funct7_i [4] $end
$var wire 1 d ctrl_funct7_i [3] $end
$var wire 1 e ctrl_funct7_i [2] $end
$var wire 1 f ctrl_funct7_i [1] $end
$var wire 1 g ctrl_funct7_i [0] $end
$var wire 1 h ctrl_funct3_i [2] $end
$var wire 1 i ctrl_funct3_i [1] $end
$var wire 1 j ctrl_funct3_i [0] $end
$var wire 1 k rs1_data_i [31] $end
$var wire 1 l rs1_data_i [30] $end
$var wire 1 m rs1_data_i [29] $end
$var wire 1 n rs1_data_i [28] $end
$var wire 1 o rs1_data_i [27] $end
$var wire 1 p rs1_data_i [26] $end
$var wire 1 q rs1_data_i [25] $end
$var wire 1 r rs1_data_i [24] $end
$var wire 1 s rs1_data_i [23] $end
$var wire 1 t rs1_data_i [22] $end
$var wire 1 u rs1_data_i [21] $end
$var wire 1 v rs1_data_i [20] $end
$var wire 1 w rs1_data_i [19] $end
$var wire 1 x rs1_data_i [18] $end
$var wire 1 y rs1_data_i [17] $end
$var wire 1 z rs1_data_i [16] $end
$var wire 1 { rs1_data_i [15] $end
$var wire 1 | rs1_data_i [14] $end
$var wire 1 } rs1_data_i [13] $end
$var wire 1 ~ rs1_data_i [12] $end
$var wire 1 !! rs1_data_i [11] $end
$var wire 1 "! rs1_data_i [10] $end
$var wire 1 #! rs1_data_i [9] $end
$var wire 1 $! rs1_data_i [8] $end
$var wire 1 %! rs1_data_i [7] $end
$var wire 1 &! rs1_data_i [6] $end
$var wire 1 '! rs1_data_i [5] $end
$var wire 1 (! rs1_data_i [4] $end
$var wire 1 )! rs1_data_i [3] $end
$var wire 1 *! rs1_data_i [2] $end
$var wire 1 +! rs1_data_i [1] $end
$var wire 1 ,! rs1_data_i [0] $end
$var wire 1 -! imm_se_i [31] $end
$var wire 1 .! imm_se_i [30] $end
$var wire 1 /! imm_se_i [29] $end
$var wire 1 0! imm_se_i [28] $end
$var wire 1 1! imm_se_i [27] $end
$var wire 1 2! imm_se_i [26] $end
$var wire 1 3! imm_se_i [25] $end
$var wire 1 4! imm_se_i [24] $end
$var wire 1 5! imm_se_i [23] $end
$var wire 1 6! imm_se_i [22] $end
$var wire 1 7! imm_se_i [21] $end
$var wire 1 8! imm_se_i [20] $end
$var wire 1 9! imm_se_i [19] $end
$var wire 1 :! imm_se_i [18] $end
$var wire 1 ;! imm_se_i [17] $end
$var wire 1 <! imm_se_i [16] $end
$var wire 1 =! imm_se_i [15] $end
$var wire 1 >! imm_se_i [14] $end
$var wire 1 ?! imm_se_i [13] $end
$var wire 1 @! imm_se_i [12] $end
$var wire 1 A! imm_se_i [11] $end
$var wire 1 B! imm_se_i [10] $end
$var wire 1 C! imm_se_i [9] $end
$var wire 1 D! imm_se_i [8] $end
$var wire 1 E! imm_se_i [7] $end
$var wire 1 F! imm_se_i [6] $end
$var wire 1 G! imm_se_i [5] $end
$var wire 1 H! imm_se_i [4] $end
$var wire 1 I! imm_se_i [3] $end
$var wire 1 J! imm_se_i [2] $end
$var wire 1 K! imm_se_i [1] $end
$var wire 1 L! imm_se_i [0] $end
$var reg 32 M! alu_result_o [31:0] $end
$var reg 1 N! alu_zero_o $end
$var wire 1 O! rs2_data_i [31] $end
$var wire 1 P! rs2_data_i [30] $end
$var wire 1 Q! rs2_data_i [29] $end
$var wire 1 R! rs2_data_i [28] $end
$var wire 1 S! rs2_data_i [27] $end
$var wire 1 T! rs2_data_i [26] $end
$var wire 1 U! rs2_data_i [25] $end
$var wire 1 V! rs2_data_i [24] $end
$var wire 1 W! rs2_data_i [23] $end
$var wire 1 X! rs2_data_i [22] $end
$var wire 1 Y! rs2_data_i [21] $end
$var wire 1 Z! rs2_data_i [20] $end
$var wire 1 [! rs2_data_i [19] $end
$var wire 1 \! rs2_data_i [18] $end
$var wire 1 ]! rs2_data_i [17] $end
$var wire 1 ^! rs2_data_i [16] $end
$var wire 1 _! rs2_data_i [15] $end
$var wire 1 `! rs2_data_i [14] $end
$var wire 1 a! rs2_data_i [13] $end
$var wire 1 b! rs2_data_i [12] $end
$var wire 1 c! rs2_data_i [11] $end
$var wire 1 d! rs2_data_i [10] $end
$var wire 1 e! rs2_data_i [9] $end
$var wire 1 f! rs2_data_i [8] $end
$var wire 1 g! rs2_data_i [7] $end
$var wire 1 h! rs2_data_i [6] $end
$var wire 1 i! rs2_data_i [5] $end
$var wire 1 j! rs2_data_i [4] $end
$var wire 1 k! rs2_data_i [3] $end
$var wire 1 l! rs2_data_i [2] $end
$var wire 1 m! rs2_data_i [1] $end
$var wire 1 n! rs2_data_i [0] $end
$var reg 32 o! rs2_data_o [31:0] $end
$var wire 32 p! op2_data [31:0] $end
$var reg 32 q! alu_result_q [31:0] $end
$var reg 32 r! alu_result_d [31:0] $end
$var reg 32 s! mul_result_d [31:0] $end
$var reg 32 t! rs2_data_q [31:0] $end
$var reg 32 u! rd_q [31:0] $end
$var reg 1 v! alu_zero_q $end
$var reg 1 w! mult_valid_result_q $end
$var reg 1 x! ctrl_ld_q $end
$var reg 1 y! ctrl_st_q $end
$var reg 1 z! ctrl_jm_q $end
$var reg 1 {! ctrl_br_q $end
$var reg 1 |! ctrl_reg_write_q $end

$scope module alu_inst $end
$var wire 1 ! clk $end
$var wire 1 " reset_n $end
$var wire 1 Z opcode_i [6] $end
$var wire 1 [ opcode_i [5] $end
$var wire 1 \ opcode_i [4] $end
$var wire 1 ] opcode_i [3] $end
$var wire 1 ^ opcode_i [2] $end
$var wire 1 _ opcode_i [1] $end
$var wire 1 ` opcode_i [0] $end
$var wire 1 a funct7_i [6] $end
$var wire 1 b funct7_i [5] $end
$var wire 1 c funct7_i [4] $end
$var wire 1 d funct7_i [3] $end
$var wire 1 e funct7_i [2] $end
$var wire 1 f funct7_i [1] $end
$var wire 1 g funct7_i [0] $end
$var wire 1 h funct3_i [2] $end
$var wire 1 i funct3_i [1] $end
$var wire 1 j funct3_i [0] $end
$var wire 1 k op1_data_i [31] $end
$var wire 1 l op1_data_i [30] $end
$var wire 1 m op1_data_i [29] $end
$var wire 1 n op1_data_i [28] $end
$var wire 1 o op1_data_i [27] $end
$var wire 1 p op1_data_i [26] $end
$var wire 1 q op1_data_i [25] $end
$var wire 1 r op1_data_i [24] $end
$var wire 1 s op1_data_i [23] $end
$var wire 1 t op1_data_i [22] $end
$var wire 1 u op1_data_i [21] $end
$var wire 1 v op1_data_i [20] $end
$var wire 1 w op1_data_i [19] $end
$var wire 1 x op1_data_i [18] $end
$var wire 1 y op1_data_i [17] $end
$var wire 1 z op1_data_i [16] $end
$var wire 1 { op1_data_i [15] $end
$var wire 1 | op1_data_i [14] $end
$var wire 1 } op1_data_i [13] $end
$var wire 1 ~ op1_data_i [12] $end
$var wire 1 !! op1_data_i [11] $end
$var wire 1 "! op1_data_i [10] $end
$var wire 1 #! op1_data_i [9] $end
$var wire 1 $! op1_data_i [8] $end
$var wire 1 %! op1_data_i [7] $end
$var wire 1 &! op1_data_i [6] $end
$var wire 1 '! op1_data_i [5] $end
$var wire 1 (! op1_data_i [4] $end
$var wire 1 )! op1_data_i [3] $end
$var wire 1 *! op1_data_i [2] $end
$var wire 1 +! op1_data_i [1] $end
$var wire 1 ,! op1_data_i [0] $end
$var wire 1 O! op2_data_i [31] $end
$var wire 1 P! op2_data_i [30] $end
$var wire 1 Q! op2_data_i [29] $end
$var wire 1 R! op2_data_i [28] $end
$var wire 1 S! op2_data_i [27] $end
$var wire 1 T! op2_data_i [26] $end
$var wire 1 U! op2_data_i [25] $end
$var wire 1 V! op2_data_i [24] $end
$var wire 1 W! op2_data_i [23] $end
$var wire 1 X! op2_data_i [22] $end
$var wire 1 Y! op2_data_i [21] $end
$var wire 1 Z! op2_data_i [20] $end
$var wire 1 [! op2_data_i [19] $end
$var wire 1 \! op2_data_i [18] $end
$var wire 1 ]! op2_data_i [17] $end
$var wire 1 ^! op2_data_i [16] $end
$var wire 1 _! op2_data_i [15] $end
$var wire 1 `! op2_data_i [14] $end
$var wire 1 a! op2_data_i [13] $end
$var wire 1 b! op2_data_i [12] $end
$var wire 1 c! op2_data_i [11] $end
$var wire 1 d! op2_data_i [10] $end
$var wire 1 e! op2_data_i [9] $end
$var wire 1 f! op2_data_i [8] $end
$var wire 1 g! op2_data_i [7] $end
$var wire 1 h! op2_data_i [6] $end
$var wire 1 i! op2_data_i [5] $end
$var wire 1 j! op2_data_i [4] $end
$var wire 1 k! op2_data_i [3] $end
$var wire 1 l! op2_data_i [2] $end
$var wire 1 m! op2_data_i [1] $end
$var wire 1 n! op2_data_i [0] $end
$var wire 1 -! imm_se_i [31] $end
$var wire 1 .! imm_se_i [30] $end
$var wire 1 /! imm_se_i [29] $end
$var wire 1 0! imm_se_i [28] $end
$var wire 1 1! imm_se_i [27] $end
$var wire 1 2! imm_se_i [26] $end
$var wire 1 3! imm_se_i [25] $end
$var wire 1 4! imm_se_i [24] $end
$var wire 1 5! imm_se_i [23] $end
$var wire 1 6! imm_se_i [22] $end
$var wire 1 7! imm_se_i [21] $end
$var wire 1 8! imm_se_i [20] $end
$var wire 1 9! imm_se_i [19] $end
$var wire 1 :! imm_se_i [18] $end
$var wire 1 ;! imm_se_i [17] $end
$var wire 1 <! imm_se_i [16] $end
$var wire 1 =! imm_se_i [15] $end
$var wire 1 >! imm_se_i [14] $end
$var wire 1 ?! imm_se_i [13] $end
$var wire 1 @! imm_se_i [12] $end
$var wire 1 A! imm_se_i [11] $end
$var wire 1 B! imm_se_i [10] $end
$var wire 1 C! imm_se_i [9] $end
$var wire 1 D! imm_se_i [8] $end
$var wire 1 E! imm_se_i [7] $end
$var wire 1 F! imm_se_i [6] $end
$var wire 1 G! imm_se_i [5] $end
$var wire 1 H! imm_se_i [4] $end
$var wire 1 I! imm_se_i [3] $end
$var wire 1 J! imm_se_i [2] $end
$var wire 1 K! imm_se_i [1] $end
$var wire 1 L! imm_se_i [0] $end
$var wire 1 }! zero_o $end
$var reg 32 ~! result_o [31:0] $end
$upscope $end
$upscope $end
$upscope $end
$enddefinitions $end
#0
$dumpvars
bx C
bx I
xQ
xS
xU
xW
xY
bx M!
xN!
bx o!
bx q!
b0 r!
bx s!
bx t!
b0xxxxx u!
1v!
xw!
xx!
xy!
xz!
x{!
x|!
b0 ~!
bz p!
0n!
0m!
0l!
0k!
0j!
0i!
0h!
0g!
0f!
0e!
0d!
0c!
0b!
0a!
0`!
0_!
0^!
0]!
0\!
0[!
0Z!
0Y!
0X!
0W!
0V!
0U!
0T!
0S!
0R!
0Q!
0P!
0O!
0L!
0K!
0J!
0I!
0H!
0G!
0F!
0E!
0D!
0C!
0B!
0A!
0@!
0?!
0>!
0=!
0<!
0;!
0:!
09!
08!
07!
06!
05!
04!
03!
02!
01!
00!
0/!
0.!
0-!
0,!
0+!
0*!
0)!
0(!
0'!
0&!
0%!
0$!
0#!
0"!
0!!
0~
0}
0|
0{
0z
0y
0x
0w
0v
0u
0t
0s
0r
0q
0p
0o
0n
0m
0l
0k
0j
0i
0h
0g
0f
0e
0d
0c
0b
0a
0`
0_
0^
0]
0\
0[
0Z
0X
0V
0T
0R
0P
1O
0H
0G
0F
0E
0D
0B
0A
0@
0?
0>
0=
0<
0;
0:
09
08
07
06
05
04
03
02
01
00
0/
0.
0-
0,
0+
0*
0)
0(
0'
0&
0%
0$
0#
0"
1!
0N
0M
0L
0K
0J
1}!
$end
#1000
0!
#2000
1!
0|!
0Y
1"
#3000
0!
#4000
1!
b0 C
b0 u!
b0 t!
b0 q!
1N!
0x!
0y!
0z!
0{!
0W
0U
0S
0Q
b0 M!
b0 o!
b0 I
1m!
1j!
1i!
1g!
1a!
1_!
1]!
1\!
1[!
1X!
1U!
1T!
1Q!
1+!
1(!
1'!
1&!
1$!
1#!
1"!
1z
1x
1w
1v
1u
1r
1p
1o
1k
1`
1_
1\
1[
0}!
0v!
b10110011100010111010100000100100 ~!
b10110011100010111010100000100100 r!
#5000
0!
#6000
1!
b100110010011101010000010110010 t!
b10110011100010111010100000100100 q!
0N!
b10110011100010111010100000100100 M!
b100110010011101010000010110010 o!
0m!
0g!
1f!
1d!
1b!
1`!
1^!
0]!
0\!
1Z!
0X!
1V!
1S!
0Q!
0+!
0'!
0&!
0$!
1!!
1}
1|
0w
0v
0u
1t
1s
1q
0p
0o
1m
b10110010110111110110001101000000 ~!
b10110010110111110110001101000000 r!
#7000
0!
#8000
1!
b1111000110011111010100110000 t!
b10110010110111110110001101000000 q!
b10110010110111110110001101000000 M!
b1111000110011111010100110000 o!
1m!
1l!
1g!
1c!
0b!
0_!
0^!
1]!
0Z!
1X!
1W!
0V!
1R!
1P!
1,!
1*!
1'!
1%!
1$!
0!!
1{
1w
0s
1o
0m
b11101010000110000101010101101011 ~!
b11101010000110000101010101101011 r!
#9000
0!
#10000
1!
b1011110110010100110110110110110 t!
b11101010000110000101010101101011 q!
b11101010000110000101010101101011 M!
b1011110110010100110110110110110 o!
1n!
1k!
0i!
1h!
0f!
1b!
0a!
0`!
1_!
0]!
1\!
0[!
1Y!
1V!
0T!
0,!
0'!
0%!
0"!
1!!
0}
0x
1u
0t
1s
0r
0q
0o
1n
1m
b1100100011100110011111110011 ~!
b1100100011100110011111110011 r!
#11000
0!
#12000
1!
b1011011111001001001110011011111 t!
b1100100011100110011111110011 q!
b1100100011100110011111110011 M!
b1011011111001001001110011011111 o!
0l!
0j!
1i!
1f!
1e!
0d!
1a!
0_!
1^!
1]!
0\!
0U!
1T!
0S!
0R!
1,!
1+!
0*!
1)!
1'!
1%!
0$!
1"!
1}
0|
0z
1y
1x
0w
1v
0u
1t
0s
1p
0n
0m
b11001010001110011110101010100110 ~!
b11001010001110011110101010100110 r!
#13000
0!
#14000
1!
b1000101111000110011101111101011 t!
b11001010001110011110101010100110 q!
b11001010001110011110101010100110 M!
b1000101111000110011101111101011 o!
0n!
0m!
0k!
0i!
0g!
0f!
0e!
0c!
0b!
0a!
1`!
0^!
1\!
1[!
0Y!
0W!
1U!
0T!
1S!
1Q!
0P!
0+!
0)!
0(!
0'!
1&!
0%!
0#!
0!!
0}
1|
0{
1w
1u
1q
0p
1m
1l
b1101110011001000010010000001 ~!
b1101110011001000010010000001 r!
#15000
0!
#16000
1!
b101011010011100100000001000000 t!
b1101110011001000010010000001 q!
b1101110011001000010010000001 M!
b101011010011100100000001000000 o!
1n!
1m!
0h!
1f!
1e!
1a!
1_!
0]!
0[!
1W!
0V!
0U!
0S!
1R!
0Q!
1O!
0,!
1+!
1)!
0&!
1%!
1$!
0"!
1~
1}
1{
0x
0w
0u
1s
1r
0q
1p
1o
1n
0m
0l
b101110100101111101010010001101 ~!
b101110100101111101010010001101 r!
#17000
0!
#18000
1!
b10010000110001001110001100000011 t!
b101110100101111101010010001101 q!
b101110100101111101010010001101 M!
b10010000110001001110001100000011 o!
0m!
1l!
1k!
1j!
1h!
0f!
0e!
1d!
1b!
0a!
0`!
1^!
1]!
1[!
1Z!
1Y!
1T!
0R!
1Q!
0+!
1*!
1(!
1'!
1&!
1"!
0}
0{
1x
1w
0v
0s
0r
1q
0o
0n
1m
b1001011010011011110101001011001 ~!
b1001011010011011110101001011001 r!
#19000
0!
#20000
1!
b10100100111111111001010001011101 t!
b1001011010011011110101001011001 q!
b1001011010011011110101001011001 M!
b10100100111111111001010001011101 o!
0n!
1m!
0l!
0j!
1i!
1e!
0d!
1c!
0b!
1a!
0_!
0]!
0\!
0[!
0Z!
0W!
1U!
0T!
1R!
1P!
0O!
1,!
0'!
0&!
0%!
0$!
1#!
0"!
0~
1{
1z
0x
1s
0p
1o
0m
b11111101001011001110110010000111 ~!
b11111101001011001110110010000111 r!
#21000
0!
#22000
1!
b1110010011000010010101001101010 t!
b11111101001011001110110010000111 q!
b11111101001011001110110010000111 M!
b1110010011000010010101001101010 o!
1n!
1l!
1j!
0h!
1f!
0e!
1d!
0c!
1b!
1]!
1\!
1Z!
0X!
1V!
1T!
0R!
0Q!
0P!
0,!
1+!
0)!
1$!
0#!
1~
1}
0|
0w
1v
1u
0s
0q
1n
0k
b11111101010101110011001010101 ~!
b11111101010101110011001010101 r!
#23000
0!
#24000
1!
b111001101110011010100111111 t!
b11111101010101110011001010101 q!
b11111101010101110011001010101 M!
b111001101110011010100111111 o!
0n!
0m!
0l!
0j!
1g!
0a!
1`!
0^!
0]!
0Z!
1X!
1W!
0T!
1R!
1P!
1O!
1,!
0*!
0(!
1'!
0$!
1#!
1"!
1|
0{
0y
1x
0v
0t
1s
1q
0n
1m
1k
b1111110100010011100101111001011 ~!
b1111110100010011100101111001011 r!
#25000
0!
#26000
1!
b11010011111001000101010110101000 t!
b1111110100010011100101111001011 q!
b1111110100010011100101111001011 M!
b11010011111001000101010110101000 o!
1n!
1l!
0k!
0g!
0f!
0b!
1_!
1]!
0\!
0Y!
0X!
0W!
0U!
1T!
1S!
0R!
1Q!
0P!
0O!
0,!
0+!
1(!
0'!
1%!
1!!
0~
0|
1{
0z
0x
1t
1r
1n
b11101000111000110111001010110101 ~!
b11101000111000110111001010110101 r!
#27000
0!
#28000
1!
b101101000000101100010000100101 t!
b11101000111000110111001010110101 q!
b11101000111000110111001010110101 M!
b101101000000101100010000100101 o!
1m!
0l!
1k!
1j!
0i!
1h!
1f!
0d!
0`!
0]!
1\!
1[!
1Y!
1W!
1R!
0Q!
1O!
1+!
0(!
1$!
0}
1|
1z
1y
1v
0r
1p
0n
1l
0k
b1100101000000101000011011101 ~!
b1100101000000101000011011101 r!
#29000
0!
#30000
1!
b10011101101011001000000101011011 t!
b1100101000000101000011011101 q!
b1100101000000101000011011101 M!
b10011101101011001000000101011011 o!
0m!
0k!
1i!
0h!
1e!
1d!
1a!
1`!
1]!
0\!
1Z!
1X!
0W!
0V!
0S!
0R!
1Q!
1P!
1(!
1'!
1&!
0#!
0"!
0!!
1}
0z
0y
0v
0p
0m
b101111010110111100100100100011 ~!
b101111010110111100100100100011 r!
#31000
0!
#32000
1!
b11100100011110101110011100110001 t!
b101111010110111100100100100011 q!
b101111010110111100100100100011 M!
b11100100011110101110011100110001 o!
0n!
1l!
0j!
1h!
0f!
1b!
0_!
1^!
0Y!
1U!
0T!
1,!
0+!
1*!
1)!
0(!
0'!
1#!
1!!
0{
1z
1x
1v
0t
0s
0o
1m
0l
b100100100001110001000110001 ~!
b100100100001110001000110001 r!
#33000
0!
#34000
1!
b11100010010110110111011001100100 t!
b100100100001110001000110001 q!
b100100100001110001000110001 M!
b11100010010110110111011001100100 o!
1m!
0l!
1k!
1g!
0a!
0`!
0^!
1T!
1S!
1R!
0P!
1+!
0*!
1'!
0&!
0%!
0$!
0#!
1{
0z
1y
0u
1t
1s
0q
1p
1o
1n
0m
b11011011001100001111111100010101 ~!
b11011011001100001111111100010101 r!
#35000
0!
#36000
1!
b10111110010110100001011011101010 t!
b11011011001100001111111100010101 q!
b11011011001100001111111100010101 M!
b10111110010110100001011011101010 o!
1l!
0k!
1j!
1f!
0e!
0d!
1`!
1_!
1Y!
1W!
0U!
0T!
0S!
0R!
1P!
0O!
0+!
0)!
1(!
0'!
1%!
1#!
0}
0|
0{
1z
0y
0x
1u
0s
1r
0n
1m
1k
b1110011010111101110010000111 ~!
b1110011010111101110010000111 r!
#37000
0!
#38000
1!
b1100000111110101101000111110110 t!
b1110011010111101110010000111 q!
b1110011010111101110010000111 M!
b1100000111110101101000111110110 o!
1n!
0m!
0i!
0g!
0f!
1c!
0b!
1a!
0`!
0_!
1^!
0]!
1\!
0W!
1U!
1T!
1R!
0Q!
0P!
0,!
1+!
1*!
0#!
1"!
0!!
1}
1x
1w
0v
0u
0t
0p
0k
b111111100010100100110011101011 ~!
b111111100010100100110011101011 r!
#39000
0!
#40000
1!
b10110011111010010100001010101 t!
b111111100010100100110011101011 q!
b111111100010100100110011101011 M!
b10110011111010010100001010101 o!
0n!
0l!
1k!
1i!
0h!
1g!
1e!
1d!
0c!
1b!
0a!
1_!
1]!
0\!
0[!
0Y!
1W!
1V!
1S!
1Q!
1'!
1&!
0%!
0"!
0z
0x
1v
1t
1s
0r
0o
1l
1k
b100000101010111011011100101110 ~!
b100000101010111011011100101110 r!
#41000
0!
#42000
1!
b111111110100111001011010111000 t!
b100000101010111011011100101110 q!
b100000101010111011011100101110 M!
b111111110100111001011010111000 o!
1n!
0k!
0j!
0i!
1f!
0d!
1c!
0_!
0^!
0]!
1\!
1[!
0Z!
0W!
0V!
0U!
0S!
0+!
0'!
0&!
1"!
1!!
0}
1z
1y
0t
0s
1r
1p
1o
1n
0l
b11110001011001110010011110010101 ~!
b11110001011001110010011110010101 r!
#43000
0!
#44000
1!
b110100010011000001101110000001 t!
b11110001011001110010011110010101 q!
b11110001011001110010011110010101 M!
b110100010011000001101110000001 o!
1l!
1k!
1i!
1h!
0f!
1d!
1`!
1_!
1^!
1]!
0[!
1Z!
0X!
1W!
1V!
1U!
1S!
0Q!
1O!
1,!
1+!
1'!
1&!
1$!
1#!
0"!
0!!
1~
1}
0z
1x
0w
1u
1s
0p
0n
0m
b101001010011100001001001100100 ~!
b101001010011100001001001100100 r!
#45000
0!
#46000
1!
b10011111100101111101111011101101 t!
b101001010011100001001001100100 q!
b101001010011100001001001100100 M!
b10011111100101111101111011101101 o!
0l!
1j!
0i!
1f!
0d!
0b!
0`!
0_!
0^!
0Z!
1Y!
1X!
0W!
0R!
0,!
0*!
0(!
0'!
0&!
1%!
0#!
1!!
0~
1{
1z
0y
0x
1w
0v
0u
1t
0s
0r
1q
0o
1n
1m
1l
0k
b1101011111011010101011011 ~!
b1101011111011010101011011 r!
#47000
0!
#48000
1!
b10001111011001100000101111011001 t!
b1101011111011010101011011 q!
b1101011111011010101011011 M!
b10001111011001100000101111011001 o!
1l!
1i!
0g!
0f!
0e!
1a!
1`!
1^!
0]!
1[!
0X!
0U!
0T!
0S!
1Q!
1P!
0O!
0+!
1*!
1(!
0%!
0$!
0!!
1~
0}
1|
0{
1y
0w
1v
0t
1o
b11011011010000001011100010010001 ~!
b11011011010000001011100010010001 r!
#49000
0!
#50000
1!
b1100001001011010110100001111101 t!
b11011011010000001011100010010001 q!
b11011011010000001011100010010001 M!
b1100001001011010110100001111101 o!
1m!
0l!
0j!
0i!
1f!
1e!
1d!
0c!
0`!
1_!
0^!
0\!
0[!
1X!
1W!
1S!
1R!
0Q!
0P!
1O!
1)!
0(!
1%!
1$!
1#!
1!!
1}
0y
0v
1t
1s
0q
0o
0m
0l
1k
b101010101000100010001011010111 ~!
b101010101000100010001011010111 r!
#51000
0!
#52000
1!
b10011001111000001010011101001011 t!
b101010101000100010001011010111 q!
b101010101000100010001011010111 M!
b10011001111000001010011101001011 o!
0n!
0m!
0k!
1j!
1i!
0e!
1c!
1b!
1^!
1]!
1[!
1Z!
0Y!
1Q!
1P!
0O!
1(!
1'!
1&!
0%!
1"!
0!!
0~
1v
0s
1r
1q
1p
1m
1l
0k
b11110001001011010010010011101100 ~!
b11110001001011010010010011101100 r!
#53000
0!
#54000
1!
b1111001110110111011110101110000 t!
b11110001001011010010010011101100 q!
b11110001001011010010010011101100 M!
b1111001110110111011110101110000 o!
1l!
1k!
0j!
0i!
1e!
0b!
1`!
0^!
1\!
1Y!
0X!
0W!
1U!
1T!
0R!
1O!
0*!
0)!
0(!
0&!
1%!
0$!
1!!
1~
0}
1y
1s
0p
0n
0m
0l
b11110011000100100100110111101100 ~!
b11110011000100100100110111101100 r!
#55000
0!
#56000
1!
b11101111001111101110111101001100 t!
b11110011000100100100110111101100 q!
b11110011000100100100110111101100 M!
b11101111001111101110111101001100 o!
1n!
1j!
0h!
1g!
0f!
0d!
0`!
0_!
1^!
0]!
0\!
0Y!
1W!
0U!
1R!
0Q!
0O!
1,!
1&!
0%!
1$!
0#!
0!!
0~
0|
1{
0z
0y
1x
1w
0t
0s
0r
1p
1n
1l
b10110011101101011010111111111110 ~!
b10110011101101011010111111111110 r!
#57000
0!
#58000
1!
b1011101100110010010101010011101 t!
b10110011101101011010111111111110 q!
b10110011101101011010111111111110 M!
b1011101100110010010101010011101 o!
0n!
1m!
0k!
0g!
1f!
1b!
0a!
0[!
1Y!
1X!
0W!
1U!
1Q!
1*!
1)!
1(!
0'!
0&!
1#!
0"!
1~
1|
0{
1y
0x
1u
1t
1s
0q
0l
1k
b10100011010110110111000110011 ~!
b10100011010110110111000110011 r!
#59000
0!
#60000
1!
b1111111011100010001101100010110 t!
b10100011010110110111000110011 q!
b10100011010110110111000110011 M!
b1111111011100010001101100010110 o!
0l!
1i!
1h!
0e!
1d!
0c!
0b!
1a!
1]!
1\!
1[!
0Z!
0X!
0V!
0T!
0R!
0P!
0*!
1'!
1%!
1"!
1!!
1}
0|
1z
0y
0w
0v
0u
0s
1r
1o
b11000111011100000110010100101011 ~!
b11000111011100000110010100101011 r!
#61000
0!
#62000
1!
b101010001011110010010101110010 t!
b11000111011100000110010100101011 q!
b11000111011100000110010100101011 M!
b101010001011110010010101110010 o!
1n!
0m!
1l!
0j!
0i!
0f!
1e!
0d!
1b!
1`!
1_!
0^!
0[!
0U!
1T!
0S!
0Q!
1P!
1O!
1+!
0)!
0'!
0$!
0#!
0"!
0!!
0~
0}
1|
1y
1x
1w
1u
1s
0r
0o
0n
1m
0k
b11101001000101100011001011011000 ~!
b11101001000101100011001011011000 r!
#63000
0!
#64000
1!
b11000100001001101111001001000101 t!
b11101001000101100011001011011000 q!
b11101001000101100011001011011000 M!
b11000100001001101111001001000101 o!
1j!
1i!
0h!
1f!
0e!
0`!
0_!
1^!
0]!
0\!
0Y!
1U!
0T!
1S!
0P!
0,!
1*!
1)!
0(!
1&!
0%!
1#!
1"!
1}
0|
0y
0x
0w
0t
0s
1r
1q
0m
b10010001001000100101011110000011 ~!
b10010001001000100101011110000011 r!
#65000
0!
#66000
1!
b10001010000000010011000100110101 t!
b10010001001000100101011110000011 q!
b10010001001000100101011110000011 M!
b10001010000000010011000100110101 o!
0n!
0l!
1k!
1h!
0f!
1e!
1c!
1Z!
1X!
1T!
0S!
1Q!
1P!
0)!
1'!
1%!
1$!
0}
1{
0z
1w
0u
0q
0p
1n
1m
1l
b1010111010110011100001001011110 ~!
b1010111010110011100001001011110 r!
#67000
0!
#68000
1!
b11100110010100010011101001111000 t!
b1010111010110011100001001011110 q!
b1010111010110011100001001011110 M!
b11100110010100010011101001111000 o!
1n!
1m!
1l!
0k!
0j!
1f!
0e!
1d!
1_!
0^!
1W!
0T!
1,!
1(!
0'!
1~
1z
1v
1q
0m
1k
b10110101111010100101010100111110 ~!
b10110101111010100101010100111110 r!
#69000
0!
#70000
1!
b11100010110100001011110101100111 t!
b10110101111010100101010100111110 q!
b10110101111010100101010100111110 M!
b11100010110100001011110101100111 o!
0m!
0i!
0h!
1^!
1]!
1[!
0W!
0U!
1T!
1S!
0Q!
0P!
0O!
0*!
0(!
1'!
0%!
1}
1|
0{
0z
0w
0v
1u
1s
0q
1p
1o
0n
0k
b1011001111111000011010001101000 ~!
b1011001111111000011010001101000 r!
