src/sim/alu/dump_file.vcd
$date
	Wed Dec 29 17:28:27 2021
$end
$version
	QuestaSim Version 10.7c
$end
$timescale
	1ps
$end

$scope module tb_module $end

$scope module alu_inst $end
$var wire 1 ! clk $end
$var wire 1 " reset_n $end
$var wire 1 # opcode_i [6] $end
$var wire 1 $ opcode_i [5] $end
$var wire 1 % opcode_i [4] $end
$var wire 1 & opcode_i [3] $end
$var wire 1 ' opcode_i [2] $end
$var wire 1 ( opcode_i [1] $end
$var wire 1 ) opcode_i [0] $end
$var wire 1 * funct7_i [6] $end
$var wire 1 + funct7_i [5] $end
$var wire 1 , funct7_i [4] $end
$var wire 1 - funct7_i [3] $end
$var wire 1 . funct7_i [2] $end
$var wire 1 / funct7_i [1] $end
$var wire 1 0 funct7_i [0] $end
$var wire 1 1 funct3_i [2] $end
$var wire 1 2 funct3_i [1] $end
$var wire 1 3 funct3_i [0] $end
$var wire 1 4 op1_data_i [31] $end
$var wire 1 5 op1_data_i [30] $end
$var wire 1 6 op1_data_i [29] $end
$var wire 1 7 op1_data_i [28] $end
$var wire 1 8 op1_data_i [27] $end
$var wire 1 9 op1_data_i [26] $end
$var wire 1 : op1_data_i [25] $end
$var wire 1 ; op1_data_i [24] $end
$var wire 1 < op1_data_i [23] $end
$var wire 1 = op1_data_i [22] $end
$var wire 1 > op1_data_i [21] $end
$var wire 1 ? op1_data_i [20] $end
$var wire 1 @ op1_data_i [19] $end
$var wire 1 A op1_data_i [18] $end
$var wire 1 B op1_data_i [17] $end
$var wire 1 C op1_data_i [16] $end
$var wire 1 D op1_data_i [15] $end
$var wire 1 E op1_data_i [14] $end
$var wire 1 F op1_data_i [13] $end
$var wire 1 G op1_data_i [12] $end
$var wire 1 H op1_data_i [11] $end
$var wire 1 I op1_data_i [10] $end
$var wire 1 J op1_data_i [9] $end
$var wire 1 K op1_data_i [8] $end
$var wire 1 L op1_data_i [7] $end
$var wire 1 M op1_data_i [6] $end
$var wire 1 N op1_data_i [5] $end
$var wire 1 O op1_data_i [4] $end
$var wire 1 P op1_data_i [3] $end
$var wire 1 Q op1_data_i [2] $end
$var wire 1 R op1_data_i [1] $end
$var wire 1 S op1_data_i [0] $end
$var wire 1 T op2_data_i [31] $end
$var wire 1 U op2_data_i [30] $end
$var wire 1 V op2_data_i [29] $end
$var wire 1 W op2_data_i [28] $end
$var wire 1 X op2_data_i [27] $end
$var wire 1 Y op2_data_i [26] $end
$var wire 1 Z op2_data_i [25] $end
$var wire 1 [ op2_data_i [24] $end
$var wire 1 \ op2_data_i [23] $end
$var wire 1 ] op2_data_i [22] $end
$var wire 1 ^ op2_data_i [21] $end
$var wire 1 _ op2_data_i [20] $end
$var wire 1 ` op2_data_i [19] $end
$var wire 1 a op2_data_i [18] $end
$var wire 1 b op2_data_i [17] $end
$var wire 1 c op2_data_i [16] $end
$var wire 1 d op2_data_i [15] $end
$var wire 1 e op2_data_i [14] $end
$var wire 1 f op2_data_i [13] $end
$var wire 1 g op2_data_i [12] $end
$var wire 1 h op2_data_i [11] $end
$var wire 1 i op2_data_i [10] $end
$var wire 1 j op2_data_i [9] $end
$var wire 1 k op2_data_i [8] $end
$var wire 1 l op2_data_i [7] $end
$var wire 1 m op2_data_i [6] $end
$var wire 1 n op2_data_i [5] $end
$var wire 1 o op2_data_i [4] $end
$var wire 1 p op2_data_i [3] $end
$var wire 1 q op2_data_i [2] $end
$var wire 1 r op2_data_i [1] $end
$var wire 1 s op2_data_i [0] $end
$var wire 1 t imm_i [11] $end
$var wire 1 u imm_i [10] $end
$var wire 1 v imm_i [9] $end
$var wire 1 w imm_i [8] $end
$var wire 1 x imm_i [7] $end
$var wire 1 y imm_i [6] $end
$var wire 1 z imm_i [5] $end
$var wire 1 { imm_i [4] $end
$var wire 1 | imm_i [3] $end
$var wire 1 } imm_i [2] $end
$var wire 1 ~ imm_i [1] $end
$var wire 1 !! imm_i [0] $end
$var wire 1 "! zero_o $end
$var reg 32 #! result_o [31:0] $end
$upscope $end
$upscope $end
$enddefinitions $end
#0
$dumpvars
b10110011111010111111011110 #!
z!
0"!
x!!
x~
x}
x|
x{
xz
xy
xx
xw
xv
xu
xt
0s
1r
1q
0p
0o
1n
0m
0l
0k
0j
1i
1h
0g
0f
0e
0d
1c
0b
1a
0`
1_
1^
1]
0\
1[
1Z
1Y
0X
1W
0V
0U
0T
0S
0R
0Q
1P
1O
1N
0M
1L
1K
1J
0I
0H
0G
1F
0E
1D
0C
1B
0A
1@
1?
0>
1=
0<
1;
1:
09
18
07
16
15
14
03
02
01
00
0/
0.
0-
0,
0+
0*
1)
1(
0'
0&
1%
1$
0#
0"
$end
#2000
1o
1l
1k
1j
0i
0h
1f
1e
1d
0a
1`
0]
1\
0[
0Z
1X
1V
1T
1R
1Q
0P
0O
1M
0L
0J
1H
1G
1C
0B
1A
0?
0=
0:
19
17
06
05
b1011001110001111001110100011100 #!
#4000
0o
0n
1m
0l
0k
1i
1h
0d
1a
0`
0^
1[
1Z
0Y
0X
0W
0V
0N
1L
0K
0G
0F
0D
0C
1B
09
08
15
04
b11010100101000110111011100001100 #!
#6000
1p
1n
0m
1k
0i
0h
1g
1d
1b
0a
1`
0[
1Y
1W
1V
1U
0T
0Q
1O
1N
0L
1K
1J
1I
1C
0B
0A
0@
1?
1=
1<
1:
18
16
05
b10110010011011010000001010100000 #!
#8000
0q
1o
0j
1i
0f
0d
0c
1a
0`
0_
1[
0Y
0U
1S
1Q
0O
0K
0J
0H
1E
1B
1A
1>
0=
0<
0;
15
14
b101101101111011001100110100001 #!
#10000
0r
1q
0p
1l
0i
1d
1c
0b
1^
0\
1X
0W
1U
0S
0Q
1P
1H
1G
0E
0B
0A
1@
1=
1<
19
08
07
06
04
b10110010000111101110111000011110 #!
#12000
1r
0n
1m
0l
0k
1j
1h
0e
0d
1b
0a
1`
1_
0^
1\
0[
0X
1W
0V
1T
1S
1Q
1J
0I
1F
1E
1D
0C
1B
1A
0@
0>
0=
0<
1;
0:
09
16
b110011101100100001010011000101 #!
#14000
0r
1l
1k
1i
0h
1f
1e
0b
1a
0_
1^
1]
0Z
0U
0T
0R
0P
1O
0M
1I
0H
0E
0D
1C
0B
0A
1@
0;
19
18
17
06
05
14
b10101101000001101010111000001001 #!
#16000
1s
1p
1n
0l
0j
0i
0g
0f
0e
1d
0a
0`
1_
1X
1V
0S
1R
1P
0O
1L
0J
0I
0G
0F
1E
1B
1A
1<
08
04
b1001101100100001100001000101011 #!
#18000
0p
0o
0n
0m
0k
1j
1i
1h
0d
1b
1a
1`
0_
1Z
1Y
0X
0W
1T
1S
0Q
1O
0N
1M
1K
1J
1I
1G
1F
0E
1D
0C
0B
0?
1=
1:
09
16
b11011001101110111100010111100000 #!
#20000
0s
0q
1n
1k
0i
0h
1d
0c
0b
0a
0`
0^
0]
0\
0T
0P
0O
1N
0K
0G
0F
1C
0:
19
06
15
b1111010110011100000101000000011 #!
#22000
1s
1q
0n
1i
1g
1f
1e
0d
1b
1`
1_
1^
1]
1\
1[
0Z
1X
1W
1U
0R
1Q
1K
0J
1F
1E
0D
0C
1B
0A
1?
1:
09
18
07
05
b10001000110101001101110011101010 #!
#24000
0q
1p
1n
1m
1l
0k
1h
0f
0e
1c
1a
0`
0_
0^
0Y
0X
0W
0M
0L
1H
0F
0E
1D
1C
1A
0@
1>
0=
0<
1;
19
08
17
16
b10011000111111101010110000001110 #!
#26000
0s
1r
0n
0m
1k
0j
1d
0c
0a
1_
1^
0]
0\
0[
1Z
1X
1W
0V
1T
1P
1O
0N
1M
0K
0H
1F
0D
0C
0B
0A
0>
0:
09
14
b10001011010000101100000111100111 #!
#28000
1s
0i
0g
1e
0d
0_
0^
0Z
1Y
0U
0S
0Q
1K
0I
1C
1>
1=
0;
1:
18
b1010110011100110110101011100011 #!
#30000
0r
1m
1j
0h
1g
0e
1d
1c
1^
1]
1\
1[
0X
0W
1U
0T
1R
1Q
0P
1G
0F
1E
1D
1B
1A
1@
0=
1;
07
04
b1110001001000110110010100011111 #!
#32000
0s
0p
0l
0j
1f
0b
1a
1_
0^
0]
0\
0Y
1W
1V
1T
1S
0R
0Q
1P
1N
0M
1L
0K
1J
1F
0D
0C
0B
0?
1=
08
17
06
b100100000100010001111111001 #!
#34000
1r
1q
1p
0m
0k
1j
1i
1h
0c
0a
1`
0_
1^
1]
1\
1X
0V
0T
0S
0P
0O
0N
1K
1I
0F
1D
1C
1B
0A
1?
0>
0=
1<
0:
14
b11101011100001001001010110001110 #!
#36000
1l
1k
0j
0i
0g
1e
1a
1_
0\
0[
1Z
0W
1Q
1O
1M
0K
0J
0I
1H
0G
1A
0@
0?
1>
0<
0;
1:
19
18
07
15
04
b10011000101001001011001001100010 #!
#38000
1s
0p
1o
1g
0f
0e
0d
1c
1b
0a
0_
0^
1\
0Z
1Y
1W
0U
0Q
0O
1I
0H
1F
0D
0C
1?
1=
1<
1;
0:
08
17
16
05
b1010010110000010111111001010111 #!
#40000
0o
1m
1j
1e
1d
0`
1_
1^
0\
1[
0X
0W
1U
1T
1S
1Q
1N
0M
0L
1K
0I
1G
0F
0E
1D
1C
0B
0A
0>
0;
09
18
15
b111110010001010110110011101100 #!
#42000
0r
0q
1o
0l
0j
1f
1a
1`
0]
1\
1Z
0Y
1W
1V
0U
0T
0S
0Q
1P
1O
0N
1M
0K
1J
1F
1E
0D
1B
1@
0?
1;
19
08
07
14
b11001100010110110101110101001 #!
#44000
1r
0o
1n
0m
0k
1j
1i
0f
0c
0b
0a
0`
0_
0\
1Y
1X
1U
1T
1R
0P
1N
0M
1K
0J
1H
0G
0F
1D
0C
0@
1?
1>
0<
0;
09
18
05
b10100111100100111010011101010101 #!
#46000
1o
1l
1k
0j
0i
0h
0g
0e
0d
1c
1\
0[
0V
0U
0R
1Q
0N
1M
1J
0H
1G
0?
0>
0=
1;
08
06
15
04
b11011111101000111101010100000111 #!
#48000
0s
1q
0o
1m
0k
1j
1h
1g
0c
1b
1a
1`
1[
0Y
0X
0W
1V
1U
0T
1R
0Q
1P
0K
1I
0D
1A
1@
1?
19
18
17
05
b10000000110011000111000101000000 #!
#50000
1s
0r
0l
0h
1f
0`
1_
0^
1]
0Z
1W
1Q
0P
1N
1L
1K
0J
1F
1D
0@
1=
1<
1:
08
07
16
14
b11001101011010010100001011011 #!
#52000
1r
1p
0n
0m
1k
1h
0f
1e
1c
0a
0\
1Z
1Y
1X
0W
0U
0Q
1P
0O
0F
0E
0D
0A
1@
1>
0:
09
06
04
b110001010011010111000011111001 #!
#54000
0s
0r
0p
1m
0k
0j
1i
0h
0g
1f
0e
1d
0c
0b
1a
1`
0]
1\
0Z
0Y
1W
1U
1T
1S
1Q
0K
0I
0B
1A
0?
0>
0=
0<
1:
19
18
b1000101010001011010100110011 #!
#56000
1s
1r
0q
1p
1l
0i
1g
0f
0d
1c
1b
0_
1^
1]
0[
0W
0V
0U
0R
0Q
0N
1K
1I
1H
1E
1B
0A
0@
1?
1=
1<
0;
0:
09
b10010001110000010110111010010100 #!
#58000
1q
0p
1j
1h
1f
1e
0a
0`
0]
1[
0X
0T
1R
1Q
0P
0L
1J
0I
0H
0G
1D
1A
1@
0=
1;
1:
19
17
16
b1000001010000100011111000001110 #!
#60000
0r
0q
1n
1k
0f
0e
1d
0c
1`
1_
0\
1X
1T
0S
0Q
1O
1N
1L
0J
1I
1G
0B
0A
0@
0?
1>
0:
09
08
07
15
14
b1101010110110110111000111010011 #!
#62000
0s
1o
0m
0l
0h
1e
1c
0b
0_
0[
1W
1V
1S
0R
1Q
0O
0N
0M
1J
0I
0D
1B
1@
1?
0>
05
b1011001110001000010011010110101 #!
#64000
1s
1q
1p
0n
0j
1h
0g
0d
1a
0^
1]
1[
1Z
0W
0S
1R
1O
1N
1M
0L
0K
0G
1F
0E
0B
1A
0@
1>
1=
0;
18
17
06
15
b10000100010000010110101110010011 #!
#66000
0s
1r
0p
1j
1i
0h
1f
1d
0c
0`
1_
0]
0Z
1W
0Q
0N
1L
1K
0J
1I
0F
1E
0A
0>
0=
19
16
04
b110101101001010010110011101000 #!
#68000
0r
0q
0o
1m
0i
1g
0f
0e
0d
1b
0a
0_
1]
1Y
0W
1U
1S
1P
0K
1J
1H
0E
1C
0?
1=
1;
1:
07
06
14
b10111101000000110010001000011011 #!
#70000
1s
1o
0m
1l
0k
1f
1a
1`
1_
1\
0Y
1W
0U
0T
0R
1Q
0P
1N
0M
0I
1E
1D
1A
1>
0=
0<
0;
09
04
b10000100000000111111110101000110 #!
#72000
0s
0o
1n
0j
0f
0a
0`
0]
0\
1Z
1Y
0W
1U
1T
1R
0Q
1M
0L
1K
1I
1G
0E
1B
0A
0>
1=
1;
0:
19
17
16
05
14
b10101100010101011011000000010011 #!
#74000
1s
1q
1p
1o
0n
0l
1i
1h
0b
1a
0_
0Y
1W
0U
1Q
0N
0J
1F
1E
0D
0C
1@
0=
0;
08
06
b1001111000011101001100101110100 #!
#76000
1m
1l
1k
1j
1c
1b
1]
1\
0[
0Z
0X
0W
0V
1U
0T
0S
0R
1L
1J
0I
0H
0G
0E
1D
0B
1?
1>
1=
1:
09
07
16
b11100011001111111100001110110001 #!
#78000
0s
0p
0o
0m
0k
0j
0i
0h
1e
1d
0c
0\
1X
1W
1V
0U
1R
0Q
1P
0M
0J
1C
1B
1A
0>
0=
1;
0:
19
17
06
b11001101011001100111001000011110 #!
#80000
1s
0q
1p
1i
1h
1f
0e
1`
1_
0]
1[
1Y
0V
1U
1S
1Q
0P
1N
1J
1H
0F
1E
0D
0C
0B
0A
0@
0?
1>
1<
1:
09
16
04
b10010000101111110000100001000000 #!
#82000
1q
0p
1o
1m
1j
0i
1e
0d
1c
0b
0a
1]
1\
1Z
0X
0W
1V
1T
0S
0Q
1P
0O
0N
0L
0J
1G
0E
1D
1@
1=
0:
18
07
15
b1010001110000100001001111011111 #!
#84000
0s
1p
0o
0l
1i
0e
0c
1b
1a
0`
0]
0\
0[
0Y
1X
1W
0V
0U
0T
1Q
1O
1N
1M
1L
0K
1I
0G
0D
1C
1A
0@
0;
08
17
06
05
b101010111110110100101101001010 #!
#86000
1s
1r
0q
0p
1l
0i
0f
0b
1`
1^
1]
0Z
0X
0W
1U
1K
1D
0A
1@
0>
1;
19
18
15
14
b11110010001011010100011000001 #!
#88000
0s
0r
1q
1p
1o
1n
0m
1k
0j
1i
1b
0a
0`
0_
1W
0U
1T
0R
0Q
0O
0N
0M
1J
1F
1E
0@
1?
1>
0<
0;
08
07
b1010100110101000000110101000100 #!
#90000
1s
1r
0q
0p
1m
0k
1j
0i
1f
1d
1a
1`
0^
0]
1[
1Y
0W
1V
1U
1S
1R
1O
0J
0H
0F
0D
1B
1@
0>
0=
1:
09
17
16
05
04
b10111001010100000000010001110 #!
#92000
1q
0m
1k
0j
1i
0h
0g
0f
1e
0d
0a
1_
1^
1]
1X
0V
0U
0T
1Q
0O
1N
0L
0K
1J
1H
1F
1D
0C
0B
0@
0?
1<
1;
19
18
07
06
15
14
b11011100111110110011001111100110 #!
#94000
0o
1m
0k
1j
0i
1h
1g
1f
0e
1c
0b
1a
0_
0^
0]
0[
0Y
1V
1U
0Q
0N
1K
0J
0I
0H
1G
0F
1C
1B
1?
1>
08
05
b11101111110000010000101111110010 #!
#96000
0r
0q
1p
0n
0m
0l
1k
0j
0g
0f
1e
1_
1]
1[
1Y
1W
0V
0U
0S
0R
0P
1I
1H
0G
1F
0E
1A
1@
0?
1=
0<
0;
0:
18
17
b10111001110011001111011000001001 #!
#98000
0p
1m
1l
0k
1j
1g
1f
0e
1b
0`
0_
1^
0]
0[
0X
0W
1U
1T
1R
1P
1N
1M
0K
1J
0I
0H
0B
0A
0@
0=
1<
1;
08
07
15
04
b1001110010001101110100101011 #!
#100000
0s
1n
0l
1k
1i
0g
1d
0c
0b
1`
1]
1\
1[
1Z
1X
0R
1Q
0P
0N
0M
1I
1H
1G
0F
0D
0C
1A
1@
0>
0;
09
18
16
05
b11111000011110001100110101100100 #!
#102000
1s
1r
1q
1p
0j
0h
0f
1e
1c
1b
0\
0Y
0T
1S
1R
1P
1N
1L
1K
0I
0H
0G
1E
1C
1B
1?
0<
1;
19
17
06
14
b11101000100011110000100100011110 #!
#104000
0r
0n
1l
1j
1f
1_
1\
1V
1T
0R
0P
0N
1M
0L
0J
1H
1G
0E
1D
0C
0@
0?
1=
1<
1:
08
16
15
b11100011110001101000000100010010 #!
#106000
0s
0q
0p
1o
0k
1h
1g
0e
0d
0`
0^
0[
0Z
1Y
1W
0S
1P
1N
1J
1I
0H
1F
1E
0D
0B
0A
0;
0:
09
18
07
05
b10100101100101111011011000111100 #!
#108000
1q
1p
1n
1k
0j
0g
0f
1e
1d
0c
0b
0a
0_
1^
0]
1Z
0Y
0X
1S
0Q
0M
1L
0K
0J
0I
0G
0F
1A
1@
1;
1:
06
15
04
b111110011011010000111010100101 #!
#110000
1s
1r
0p
0o
0m
0k
0i
0h
1g
1f
0d
1a
1`
1_
0^
1]
0\
0Z
1Y
1X
0W
0T
1Q
0P
1M
1J
1D
1>
0<
0;
05
14
b11110110110010010011001110001100 #!
#112000
0s
1p
1o
1h
0f
1d
0`
1^
0]
1\
0X
1W
0V
0U
1R
0Q
1P
1O
0M
0L
0J
0D
1C
1B
0@
1?
0>
0=
1<
19
16
15
b11010011000001100011111001 #!
#114000
1s
0r
0p
0o
0n
1k
1i
0h
0g
1f
0e
0d
1c
0_
1V
1T
0R
0P
0O
1L
1J
1H
1G
1F
0C
0B
1@
0?
1=
0<
09
08
17
05
b1100110111100011010000000100110 #!
#116000
0s
0q
1n
1j
1h
1g
0f
1e
1d
1b
0a
1[
1X
0S
1R
1Q
1P
0N
1K
1I
0G
0E
1C
0A
0@
0=
1;
0:
18
b1110110101001010000111100101110 #!
#118000
0n
0l
0k
0j
0i
0h
0e
0b
1a
1`
1_
1]
0\
0[
0Y
0X
0V
1U
0T
1S
0R
0P
1O
0L
0J
0I
0H
1E
1B
1A
1@
1?
1>
19
07
15
04
b10111101101111001111000100010101 #!
#120000
1s
1r
1p
1l
1k
1j
1i
1f
0c
1b
0_
0^
1Z
1Y
1X
0U
0S
0O
1M
1L
1H
1G
0E
1D
0B
0A
0>
06
05
b101011011010000111000101001111 #!
#122000
0r
1q
1o
1n
0k
0g
1e
0d
0a
0`
0]
1\
1[
0Z
0W
0Q
1P
1N
0M
0K
0H
1B
0@
0?
1>
1=
1:
17
16
15
b10001100111001100001011101100101 #!
#124000
1m
0l
1k
0i
1h
1d
0b
1a
1_
1]
0\
0Y
0X
1Q
1M
0L
1J
1H
0G
1E
0D
0B
0>
1<
0;
08
05
b111000000101100101010111101001 #!
#126000
0s
1r
0q
0o
0m
1l
0j
0h
1g
0f
1b
0_
1^
0]
0[
1Z
1X
1W
1U
1T
1S
1R
0Q
0M
1L
1I
0H
1G
0F
0E
0C
1A
1@
1?
0=
0<
1;
0:
09
18
07
06
15
b100011010000101110100001010101 #!
#128000
0p
1o
0k
1j
1h
0e
0d
1c
0b
0a
1`
0^
1]
1[
0Z
1Y
0X
1V
0T
0R
0P
1M
0L
1K
0J
1E
1B
0?
1>
1<
05
14
b11111110111101110111000000010011 #!
#130000
1q
0o
0n
1m
0l
0g
1f
1e
1d
1b
1a
0Y
1X
0U
1T
0S
1R
1Q
1O
0N
0I
0A
0>
1=
0;
1:
19
17
16
15
b10111000000110100011101110011100 #!
#132000
1s
0r
0q
1n
1l
0h
0e
0d
0a
1^
0]
1\
1Y
0X
1U
0T
0R
1L
0K
1H
1F
0E
0B
1A
0@
0=
0:
08
07
06
05
b11111010001011110101101110110101 #!
#134000
0m
0l
0j
1i
1g
1e
1d
0c
0`
1_
1]
0[
1Z
1T
1K
1J
1I
0G
1E
1D
1C
0A
1=
0<
04
b11111011001101001110001111110101 #!
#136000
1p
1m
1k
1j
0f
0d
1c
0b
0]
0\
0Z
0Y
0W
0V
0Q
0O
1N
0L
0J
0I
1G
0C
1?
1>
1;
1:
09
18
15
14
b10001011101000100101000011001001 #!
#138000
0s
1q
0p
1o
1l
1f
0c
0_
1]
1[
1Z
1X
1W
1V
0U
0T
1R
1Q
0N
0M
0K
1J
1I
0H
0E
1C
1A
1@
0?
0:
05
b11000100110011100010110111111010 #!
#140000
1r
0q
1p
0o
0n
0k
0j
0f
0e
1d
1c
1a
1`
1_
0^
1\
0[
0Z
0X
0W
1T
1P
1O
1N
1M
0D
0C
1B
0A
0@
0>
0=
1:
17
04
b10111011110111111100101101001000 #!
#142000
1s
0p
0m
0l
0i
1h
0g
0d
0c
1b
0]
0\
1[
0V
1U
0R
0Q
0O
0M
0I
1E
1A
1=
15
14
b10011100011001000111101000101011 #!
#144000
0s
0r
1q
1p
1n
1m
1l
1k
1j
0h
1g
1e
1d
0b
0a
1]
1Z
1Y
1X
1W
0T
1S
1R
1Q
1L
1K
0J
1I
1H
0G
1C
0=
0;
07
05
04
b1101001011000000100000110011011 #!
#146000
1r
0p
0n
0l
0k
0j
1i
0g
1f
0d
1b
1a
0_
0]
1\
0[
0Z
0W
0U
0S
1O
1M
0L
1J
0I
0H
0F
0C
0B
1=
1;
0:
19
15
b1011001110100101010011111000100 #!
#148000
1s
0r
1l
1j
0a
0`
1_
1^
1]
1[
0Y
1V
1T
0R
0Q
0O
0N
0J
1H
1G
1?
0=
1<
0;
08
16
14
b10001110100001101100000000001101 #!
#150000
0s
1n
0m
1d
1c
1`
0_
0]
1Z
0X
0T
1R
1Q
1O
1N
1L
1J
1I
0H
0E
1D
1B
1=
1;
09
18
06
04
b1101101100000100111111010100010 #!
#152000
1s
1p
0n
0l
0j
0i
1g
0c
1a
0`
0^
0\
1Y
1S
0R
0P
0L
0J
1H
1F
1C
0A
1@
0?
0<
1:
19
08
16
05
b1001110010100101010110110000010 #!
#154000
1o
1n
1m
1i
1h
0g
0e
0d
1`
0[
0Z
0Y
1U
1T
0S
1R
0K
1J
0H
0F
0B
1?
0=
1<
0:
18
17
06
14
b1111101101001111100001011110011 #!
#156000
0q
1l
1k
1d
1c
0b
0a
0`
1_
1^
1]
1\
1Y
0V
0T
1S
1P
0N
0M
1K
0J
1H
0G
1F
1B
1A
0@
1>
0<
1:
09
08
07
16
04
b1101000001010010101101100011000 #!
#158000
0p
0o
0m
0l
0k
1j
0i
0f
1e
1b
1`
0_
0^
1[
1V
0U
1T
0R
0Q
1N
1M
0K
1J
0I
0H
1G
0F
0C
0B
0A
0?
19
18
17
b11100100111011000101110010011010 #!
#160000
1q
1p
1o
0n
1m
1l
1f
0`
0]
0[
0T
1Q
0O
0J
1H
0G
1F
0D
1B
1@
1?
0:
08
06
15
14
b11111001101111100001001101001010 #!
#162000
0q
0p
1n
1k
0h
0f
0d
0b
1a
0\
0Y
1U
1R
0N
1L
1J
0H
1C
0B
1A
0@
09
04
b10110001001110100110011011000000 #!
#164000
0s
1r
1p
0n
0m
0j
1i
1f
0e
1d
0c
1]
1Y
1W
0U
1T
0R
0P
1N
0L
1I
1H
0F
1E
1D
1B
1@
1=
1:
b111110001000111001111111111 #!
#166000
0r
0o
1n
1j
0i
1h
1g
0f
1e
0d
0a
1`
1^
1[
1X
1U
0T
0S
0Q
1O
1K
1G
0D
0C
0>
0=
1<
0;
19
07
16
14
b1100100000001101011101100011000 #!
#168000
1r
1q
1m
0h
0g
1f
0e
1c
1a
1\
1Z
0V
1R
1Q
0H
0E
1D
0B
0@
0?
1>
0<
0:
09
18
05
04
b10001000000100011011101101100100 #!
#170000
0r
0q
1o
0n
0m
0l
0j
1g
0f
1e
0c
1b
1_
0^
0]
0\
0[
0Y
0X
0R
0M
1L
0J
0I
1H
1F
1C
1@
1?
1=
1;
1:
19
15
b11000001100111000000101011001100 #!
#172000
1q
1n
1m
0k
1j
0g
1f
1d
1c
0b
0a
0`
0_
1]
1\
1Y
1X
1T
1S
0Q
0N
1M
0L
0K
1J
0F
0C
1B
0@
0?
0>
0=
1<
0;
09
08
06
05
14
b1100001010010000111110011001101 #!
#174000
1s
0q
0p
0o
0n
1l
0j
1i
0e
0d
0c
1`
1^
0]
0Z
0Y
1V
0U
1Q
1P
0O
1K
0H
1F
1E
0D
0A
1@
1?
1=
0<
0:
18
04
b11000001000000101001100000001110 #!
#176000
0s
1r
1q
0l
1j
0i
1h
0f
1b
0`
1]
0V
1U
1R
0P
1O
1N
0M
1L
0K
1I
1H
0G
0@
1>
0=
19
17
16
14
b10010101000101000111100011111101 #!
#178000
1s
1n
0m
1k
0j
1g
1f
1e
1c
1`
1_
0]
1[
1Y
0X
1V
0U
0T
0S
0R
0Q
1M
0H
0E
1D
1C
1@
0>
1=
09
08
15
b100110000101110010000000010111 #!
#180000
0s
0r
1p
1o
1j
1i
0h
0g
0e
0c
0b
1a
0`
0_
0^
0\
0[
1Z
0Y
1X
1U
1T
1S
1R
0L
1K
0J
0I
1E
0D
0@
1<
1;
1:
19
18
06
05
b10011001110101111000100010101111 #!
#182000
0q
0o
0n
1m
1l
0k
1h
1g
0f
1e
1d
0a
1`
1]
1\
0X
0T
0S
1Q
0N
0M
1L
0K
1I
1H
1G
1D
0C
0B
1@
1>
0;
08
07
15
04
b10111001110000011101101101011110 #!
#184000
1r
1q
0p
1n
0m
0l
1k
0j
0h
1f
0d
1c
1b
1a
0]
0\
1Y
0V
0U
0Q
0O
1M
0L
1K
1J
0H
0G
0F
0E
1B
0@
0>
0=
0<
0:
09
b1010110001000011111110001101000 #!
#186000
1s
0q
1o
1m
1j
0i
1h
0g
0e
1d
0c
0`
1[
1X
1V
1U
1S
0R
1P
1O
1N
0M
0K
0I
1H
1G
1E
0D
0B
0?
1>
1=
19
16
14
b1100011011001110000010110101100 #!
#188000
0s
0r
1q
0m
1l
0j
0h
0f
0d
1c
0b
0a
1]
0[
0Z
0Y
0X
0W
0V
0U
1R
1Q
0O
1L
1K
1I
0H
1C
1@
1?
0=
1;
18
17
06
05
b10011101011110100101100101100011 #!
#190000
0q
1p
0o
0n
1m
0k
1f
1e
1`
1_
0]
1Z
1Y
1U
1T
0P
1M
0L
0J
0I
0G
1F
0E
0C
1B
0@
0?
0>
1=
09
16
15
04
b111111010110111000001000101111 #!
#192000
1r
0p
1o
0l
1i
1g
0e
0c
1b
0_
1^
0U
0T
0Q
1P
1L
1J
1I
1H
0F
1E
1D
0B
1A
1@
1>
1<
1:
08
07
05
b101010000101110000010000111101 #!
#194000
1q
1p
0o
1k
0f
1d
1c
1a
0`
1\
0Y
1W
1U
1T
0S
0N
0M
0J
0I
1G
1C
1B
0A
0:
19
18
17
06
b11110000100100110110111011011000 #!
#196000
1s
1o
1l
1h
1f
1e
0d
0c
0b
1_
1]
0\
1[
0Z
1X
0W
1V
0R
1Q
1N
0L
0K
0C
0B
1A
0<
07
14
b1110110111000010101011000001011 #!
#198000
0r
0q
0p
0m
0k
0g
0f
1c
0a
0_
0]
1\
0X
0V
0U
0T
1S
1R
0P
0N
1M
1L
1J
0E
0D
1C
1B
0A
1?
0>
1<
0;
09
08
16
04
b100010011111000110011101011000 #!
#200000
0s
1r
1p
0o
1n
1m
0i
0e
1d
1b
1a
1_
1]
1Z
1Y
1X
1W
1V
0R
1O
1N
1K
1I
0H
1D
0B
0@
0?
1>
0=
19
1+
b11011010101011111000011110101 #!
#202000
1s
0r
1q
0p
1o
0n
0m
1k
0h
1g
1f
1e
0d
0c
0_
0^
0]
0[
0Y
0X
1R
1P
0O
0L
0K
1F
0D
1B
1@
1;
09
15
14
b1010000110110110011101100100110 #!
#204000
0s
1r
0l
1j
1i
0g
0e
1d
1c
0a
1^
0\
0Z
1X
0V
0S
0R
0P
0M
1K
0J
0G
0F
1E
1D
0B
1A
0@
1=
0<
1:
19
17
b100000101111011110000111110010 #!
#206000
0r
1m
0j
1h
0b
1`
1_
1]
1\
1[
1Z
1V
1U
1T
0Q
1P
1M
1L
1J
1G
1F
0D
0A
0;
0:
09
18
05
04
b11000011100110000011010101101100 #!
#208000
1s
0q
0k
1j
0i
0h
0f
1e
0d
1a
0`
0^
0]
0\
0[
1Y
0X
0V
0U
1Q
0P
1O
0N
0L
0I
0F
0E
1D
0C
1A
0>
0=
1;
1:
08
07
15
b110011000100001010111011111101 #!
#210000
1r
0o
1l
0j
1h
1f
0e
1d
0c
1^
1]
1[
0Z
1V
0T
1P
1H
1F
0D
1C
0A
1@
1=
1<
0;
0:
b11010100101010110110110101100111 #!
#212000
0s
0r
1q
1p
0m
1i
0h
1g
1e
0d
1b
0a
0]
1\
0[
1Z
1X
1T
1S
1R
0Q
0O
1N
0M
1L
0J
0H
0G
1?
1>
0<
1;
1:
19
18
17
06
05
14
b11111001110010101001011100001 #!
#214000
1r
1n
1k
0i
0g
0e
1d
1c
1a
1`
0_
0^
0Z
0X
1U
0T
0S
1Q
1O
0N
0L
0K
1I
0F
1D
1B
1A
0@
0?
0>
1<
0:
09
08
16
15
b10000010110010000001110110010000 #!
#216000
1o
0n
1m
0f
0d
0b
0a
0`
1_
1]
0\
0Y
0W
1S
0R
0P
1N
1M
1L
1J
0I
0D
0B
0A
1@
1?
1>
0<
1:
b1101100110101111111111011101001 #!
#218000
0r
0q
0p
0o
1i
1h
1f
1d
0c
1b
1a
1`
0_
1^
0]
1Z
1Y
1W
0Q
0O
0N
0M
0L
1G
0C
1A
0@
0?
0>
0;
0:
05
04
b1000101111010101001101110111111 #!
#220000
1p
0k
0i
0h
0f
1e
0d
1c
0b
0a
0^
1]
0Z
0W
0V
1T
0S
1L
1K
1H
1B
0A
0=
1<
1;
19
18
15
14
b11000110110001110010010101001000 #!
