src/sim/mult/dump_file.vcd
$date
	Sun Jan 22 20:49:27 2023
$end
$version
	QuestaSim Version 10.7c
$end
$timescale
	1ps
$end

$scope module tb_module $end

$scope module multiplier_inst $end
$var parameter 32 ! MUL_STAGES $end
$var parameter 32 " DW_SIZE $end
$var wire 1 # clk $end
$var wire 1 $ reset_n $end
$var wire 1 % op_i [6] $end
$var wire 1 & op_i [5] $end
$var wire 1 ' op_i [4] $end
$var wire 1 ( op_i [3] $end
$var wire 1 ) op_i [2] $end
$var wire 1 * op_i [1] $end
$var wire 1 + op_i [0] $end
$var wire 1 , funct7_i [6] $end
$var wire 1 - funct7_i [5] $end
$var wire 1 . funct7_i [4] $end
$var wire 1 / funct7_i [3] $end
$var wire 1 0 funct7_i [2] $end
$var wire 1 1 funct7_i [1] $end
$var wire 1 2 funct7_i [0] $end
$var wire 1 3 funct3_i [2] $end
$var wire 1 4 funct3_i [1] $end
$var wire 1 5 funct3_i [0] $end
$var wire 1 6 op1_data_i [31] $end
$var wire 1 7 op1_data_i [30] $end
$var wire 1 8 op1_data_i [29] $end
$var wire 1 9 op1_data_i [28] $end
$var wire 1 : op1_data_i [27] $end
$var wire 1 ; op1_data_i [26] $end
$var wire 1 < op1_data_i [25] $end
$var wire 1 = op1_data_i [24] $end
$var wire 1 > op1_data_i [23] $end
$var wire 1 ? op1_data_i [22] $end
$var wire 1 @ op1_data_i [21] $end
$var wire 1 A op1_data_i [20] $end
$var wire 1 B op1_data_i [19] $end
$var wire 1 C op1_data_i [18] $end
$var wire 1 D op1_data_i [17] $end
$var wire 1 E op1_data_i [16] $end
$var wire 1 F op1_data_i [15] $end
$var wire 1 G op1_data_i [14] $end
$var wire 1 H op1_data_i [13] $end
$var wire 1 I op1_data_i [12] $end
$var wire 1 J op1_data_i [11] $end
$var wire 1 K op1_data_i [10] $end
$var wire 1 L op1_data_i [9] $end
$var wire 1 M op1_data_i [8] $end
$var wire 1 N op1_data_i [7] $end
$var wire 1 O op1_data_i [6] $end
$var wire 1 P op1_data_i [5] $end
$var wire 1 Q op1_data_i [4] $end
$var wire 1 R op1_data_i [3] $end
$var wire 1 S op1_data_i [2] $end
$var wire 1 T op1_data_i [1] $end
$var wire 1 U op1_data_i [0] $end
$var wire 1 V op2_data_i [31] $end
$var wire 1 W op2_data_i [30] $end
$var wire 1 X op2_data_i [29] $end
$var wire 1 Y op2_data_i [28] $end
$var wire 1 Z op2_data_i [27] $end
$var wire 1 [ op2_data_i [26] $end
$var wire 1 \ op2_data_i [25] $end
$var wire 1 ] op2_data_i [24] $end
$var wire 1 ^ op2_data_i [23] $end
$var wire 1 _ op2_data_i [22] $end
$var wire 1 ` op2_data_i [21] $end
$var wire 1 a op2_data_i [20] $end
$var wire 1 b op2_data_i [19] $end
$var wire 1 c op2_data_i [18] $end
$var wire 1 d op2_data_i [17] $end
$var wire 1 e op2_data_i [16] $end
$var wire 1 f op2_data_i [15] $end
$var wire 1 g op2_data_i [14] $end
$var wire 1 h op2_data_i [13] $end
$var wire 1 i op2_data_i [12] $end
$var wire 1 j op2_data_i [11] $end
$var wire 1 k op2_data_i [10] $end
$var wire 1 l op2_data_i [9] $end
$var wire 1 m op2_data_i [8] $end
$var wire 1 n op2_data_i [7] $end
$var wire 1 o op2_data_i [6] $end
$var wire 1 p op2_data_i [5] $end
$var wire 1 q op2_data_i [4] $end
$var wire 1 r op2_data_i [3] $end
$var wire 1 s op2_data_i [2] $end
$var wire 1 t op2_data_i [1] $end
$var wire 1 u op2_data_i [0] $end
$var reg 1 v valid_result_o $end
$var reg 32 w result_o [31:0] $end
$var integer 32 x state $end
$var reg 128 y op1_data_q [127:0] $end
$var reg 128 z op2_data_q [127:0] $end
$var reg 4 { valid_instr [3:0] $end
$var reg 32 | result_d [31:0] $end
$var reg 64 } mult_result_s [63:0] $end
$var reg 64 ~ mult_result_su [63:0] $end
$var reg 64 !! mult_result_u [63:0] $end
$var reg 32 "! op1_s [31:0] $end
$var reg 32 #! op2_s [31:0] $end
$var reg 32 $! op1_u [31:0] $end
$var reg 32 %! op2_u [31:0] $end
$upscope $end
$upscope $end
$enddefinitions $end
#0
$dumpvars
0v
bx w
bx y
bx z
b0 {
bx |
bx }
bx ~
bx !!
bx "!
bx #!
bx $!
bx %!
b101 !
b1000000 "
b1 x
xu
xt
xs
xr
xq
xp
xo
xn
xm
xl
xk
xj
xi
xh
xg
xf
xe
xd
xc
xb
xa
x`
x_
x^
x]
x\
x[
xZ
xY
xX
xW
xV
xU
xT
xS
xR
xQ
xP
xO
xN
xM
xL
xK
xJ
xI
xH
xG
xF
xE
xD
xC
xB
xA
x@
x?
x>
x=
x<
x;
x:
x9
x8
x7
x6
05
04
03
02
01
00
0/
0.
0-
0,
0+
0$
1#
z*
z)
z(
z'
z&
z%
$end
#1000
0#
#2000
1#
b0 x
1$
#3000
0#
#4000
1#
1+
0u
1t
0s
0r
1q
1p
0o
1n
0m
0l
0k
0j
0i
1h
0g
1f
0e
1d
1c
1b
0a
0`
1_
0^
0]
1\
1[
0Z
0Y
1X
0W
0V
0U
1T
0S
0R
1Q
1P
1O
0N
1M
1L
1K
0J
0I
0H
0G
0F
1E
0D
1C
1B
1A
1@
0?
0>
1=
0<
1;
1:
09
08
07
16
12
b1 {
bx10001101001111010000011101110010 y
bx00100110010011101010000010110010 z
#5000
0#
#6000
1#
b1 x
b11 {
bx1000110100111101000001110111001010001101001111010000011101110010 y
bx0010011001001110101000001011001000100110010011101010000010110010 z
#7000
0#
#8000
1#
b10 x
b111 {
bx100011010011110100000111011100101000110100111101000001110111001010001101001111010000011101110010 y
bx001001100100111010100000101100100010011001001110101000001011001000100110010011101010000010110010 z
#9000
0#
#10000
1#
b11 x
b1111 {
b10001101001111010000011101110010100011010011110100000111011100101000110100111101000001110111001010001101001111010000011101110010 y
b100110010011101010000010110010001001100100111010100000101100100010011001001110101000001011001000100110010011101010000010110010 z
b100110010011101010000010110010 #!
b100110010011101010000010110010 %!
b10001101001111010000011101110010 "!
b10001101001111010000011101110010 $!
b1010100100010011100000101101110001001110100100110110101000100 !!
b1010100100010011100000101101110001001110100100110110101000100 ~
b1110111011010011110011111010100110001001110100100110110101000100 }
b10001001110100100110110101000100 |
#11000
0#
#12000
1#
b100 x
1v
b10001001110100100110110101000100 w
#13000
0#
#14000
1#
b0 x
0t
0n
1m
1k
1i
1g
1e
0d
0c
1a
0_
1]
1Z
0X
0T
0P
0O
0M
1J
1H
1G
0B
0A
0@
1?
1>
1<
0;
0:
18
0v
b10001101001111010000011101110010100011010011110100000111011100101000110100111101000001110111001010100011110001010110111000010000 y
b100110010011101010000010110010001001100100111010100000101100100010011001001110101000001011001000001111000110011111010100110000 z
#15000
0#
#16000
1#
b1 x
b10001101001111010000011101110010100011010011110100000111011100101010001111000101011011100001000010100011110001010110111000010000 y
b100110010011101010000010110010001001100100111010100000101100100000111100011001111101010011000000001111000110011111010100110000 z
#17000
0#
#18000
1#
b10 x
b10001101001111010000011101110010101000111100010101101110000100001010001111000101011011100001000010100011110001010110111000010000 y
b100110010011101010000010110010000011110001100111110101001100000000111100011001111101010011000000001111000110011111010100110000 z
#19000
0#
#20000
1#
b11 x
b10100011110001010110111000010000101000111100010101101110000100001010001111000101011011100001000010100011110001010110111000010000 y
b1111000110011111010100110000000011110001100111110101001100000000111100011001111101010011000000001111000110011111010100110000 z
b1111000110011111010100110000 #!
b1111000110011111010100110000 %!
b10100011110001010110111000010000 "!
b10100011110001010110111000010000 $!
b100110101001001011001001010101010110111010011111001100000000 !!
b100110101001001011001001010101010110111010011111001100000000 ~
b1111101010001111001101110110010101010110111010011111001100000000 }
b1010110111010011111001100000000 |
#21000
0#
#22000
1#
b100 x
1v
b1010110111010011111001100000000 w
#23000
0#
#24000
1#
b0 x
1t
1s
1n
1j
0i
0f
0e
1d
0a
1_
1^
0]
1Y
1W
1U
1S
1P
1N
1M
0J
1F
1B
0>
1:
08
0v
b10100011110001010110111000010000101000111100010101101110000100001010001111000101011011100001000010001011010011011110011110110101 y
b1111000110011111010100110000000011110001100111110101001100000000111100011001111101010011000001011110110010100110110110110110 z
#25000
0#
#26000
1#
b1 x
b10100011110001010110111000010000101000111100010101101110000100001000101101001101111001111011010110001011010011011110011110110101 y
b1111000110011111010100110000000011110001100111110101001100000101111011001010011011011011011001011110110010100110110110110110 z
#27000
0#
#28000
1#
b10 x
b10100011110001010110111000010000100010110100110111100111101101011000101101001101111001111011010110001011010011011110011110110101 y
b1111000110011111010100110000010111101100101001101101101101100101111011001010011011011011011001011110110010100110110110110110 z
#29000
0#
#30000
1#
b11 x
b10001011010011011110011110110101100010110100110111100111101101011000101101001101111001111011010110001011010011011110011110110101 y
b1011110110010100110110110110110010111101100101001101101101101100101111011001010011011011011011001011110110010100110110110110110 z
b1011110110010100110110110110110 #!
b1011110110010100110110110110110 %!
b10001011010011011110011110110101 "!
b10001011010011011110011110110101 $!
b11001110010100110000100100000001111111110111001100101110101110 !!
b11001110010100110000100100000001111111110111001100101110101110 ~
b1101010011001010010101001000101001111111110111001100101110101110 }
b1111111110111001100101110101110 |
#31000
0#
#32000
1#
b100 x
1v
b1111111110111001100101110101110 w
#33000
0#
#34000
1#
b0 x
1u
1r
0p
1o
0m
1i
0h
0g
1f
0d
1c
0b
1`
1]
0[
0U
0P
0N
0K
1J
0H
0C
1@
0?
1>
0=
0<
0:
19
18
0v
b10001011010011011110011110110101100010110100110111100111101101011000101101001101111001111011010110110000101010011100101100010100 y
b1011110110010100110110110110110010111101100101001101101101101100101111011001010011011011011011001011011111001001001110011011111 z
#35000
0#
#36000
1#
b1 x
b10001011010011011110011110110101100010110100110111100111101101011011000010101001110010110001010010110000101010011100101100010100 y
b1011110110010100110110110110110010111101100101001101101101101100101101111100100100111001101111101011011111001001001110011011111 z
#37000
0#
#38000
1#
b10 x
b10001011010011011110011110110101101100001010100111001011000101001011000010101001110010110001010010110000101010011100101100010100 y
b1011110110010100110110110110110010110111110010010011100110111110101101111100100100111001101111101011011111001001001110011011111 z
#39000
0#
#40000
1#
b11 x
b10110000101010011100101100010100101100001010100111001011000101001011000010101001110010110001010010110000101010011100101100010100 y
b1011011111001001001110011011111010110111110010010011100110111110101101111100100100111001101111101011011111001001001110011011111 z
b1011011111001001001110011011111 #!
b1011011111001001001110011011111 %!
b10110000101010011100101100010100 "!
b10110000101010011100101100010100 $!
b11111101101010000111101010101001010101011110000001011001101100 !!
b11111101101010000111101010101001010101011110000001011001101100 ~
b1110001110000101100000011100101101010101011110000001011001101100 }
b1010101011110000001011001101100 |
#41000
0#
#42000
1#
b100 x
1v
b1010101011110000001011001101100 w
#43000
0#
#44000
1#
b0 x
0s
0q
1p
1m
1l
0k
1h
0f
1e
1d
0c
0\
1[
0Z
0Y
1U
1T
0S
1R
1P
1N
0M
1K
1H
0G
0E
1D
1C
0B
1A
0@
1?
0>
1;
09
08
0v
b10110000101010011100101100010100101100001010100111001011000101001011000010101001110010110001010010000100010101101010111010111011 y
b1011011111001001001110011011111010110111110010010011100110111110101101111100100100111001101111101000101111000110011101111101011 z
#45000
0#
#46000
1#
b1 x
b10110000101010011100101100010100101100001010100111001011000101001000010001010110101011101011101110000100010101101010111010111011 y
b1011011111001001001110011011111010110111110010010011100110111110100010111100011001110111110101101000101111000110011101111101011 z
#47000
0#
#48000
1#
b10 x
b10110000101010011100101100010100100001000101011010101110101110111000010001010110101011101011101110000100010101101010111010111011 y
b1011011111001001001110011011111010001011110001100111011111010110100010111100011001110111110101101000101111000110011101111101011 z
#49000
0#
#50000
1#
b11 x
b10000100010101101010111010111011100001000101011010101110101110111000010001010110101011101011101110000100010101101010111010111011 y
b1000101111000110011101111101011010001011110001100111011111010110100010111100011001110111110101101000101111000110011101111101011 z
b1000101111000110011101111101011 #!
b1000101111000110011101111101011 %!
b10000100010101101010111010111011 "!
b10000100010101101010111010111011 $!
b10010000100000110101001110111011001100101010000111111010101001 !!
b10010000100000110101001110111011001100101010000111111010101001 ~
b1101111000111101100110010000001111001100101010000111111010101001 }
b11001100101010000111111010101001 |
#51000
0#
#52000
1#
b100 x
1v
b11001100101010000111111010101001 w
#53000
0#
#54000
1#
b0 x
0u
0t
0r
0p
0n
0m
0l
0j
0i
0h
1g
0e
1c
1b
0`
0^
1\
0[
1Z
1X
0W
0T
0R
0Q
0P
1O
0N
0L
0J
0H
1G
0F
1B
1@
1<
0;
18
17
0v
b10000100010101101010111010111011100001000101011010101110101110111000010001010110101011101011101111100010011111100100010001000001 y
b1000101111000110011101111101011010001011110001100111011111010110100010111100011001110111110101100101011010011100100000001000000 z
#55000
0#
#56000
1#
b1 x
b10000100010101101010111010111011100001000101011010101110101110111110001001111110010001000100000111100010011111100100010001000001 y
b1000101111000110011101111101011010001011110001100111011111010110010101101001110010000000100000000101011010011100100000001000000 z
#57000
0#
#58000
1#
b10 x
b10000100010101101010111010111011111000100111111001000100010000011110001001111110010001000100000111100010011111100100010001000001 y
b1000101111000110011101111101011001010110100111001000000010000000010101101001110010000000100000000101011010011100100000001000000 z
#59000
0#
#60000
1#
b11 x
b11100010011111100100010001000001111000100111111001000100010000011110001001111110010001000100000111100010011111100100010001000001 y
b101011010011100100000001000000001010110100111001000000010000000010101101001110010000000100000000101011010011100100000001000000 z
b101011010011100100000001000000 #!
b101011010011100100000001000000 %!
b11100010011111100100010001000001 "!
b11100010011111100100010001000001 $!
b10011001010000011100001100011111100111011011110101000001000000 !!
b10011001010000011100001100011111100111011011110101000001000000 ~
b1111101100000010001100001000011111100111011011110101000001000000 }
b11100111011011110101000001000000 |
#61000
0#
#62000
1#
b100 x
1v
b11100111011011110101000001000000 w
#63000
0#
#64000
1#
b0 x
1u
1t
0o
1m
1l
1h
1f
0d
0b
1^
0]
0\
0Z
1Y
0X
1V
0U
1T
1R
0O
1N
1M
0K
1I
1H
1F
0C
0B
0@
1>
1=
0<
1;
1:
19
08
07
0v
b11100010011111100100010001000001111000100111111001000100010000011110001001111110010001000100000110011101110100101111000110001010 y
b101011010011100100000001000000001010110100111001000000010000000010101101001110010000000100000010010000110001001110001100000011 z
#65000
0#
#66000
1#
b1 x
b11100010011111100100010001000001111000100111111001000100010000011001110111010010111100011000101010011101110100101111000110001010 y
b101011010011100100000001000000001010110100111001000000010000001001000011000100111000110000001110010000110001001110001100000011 z
#67000
0#
#68000
1#
b10 x
b11100010011111100100010001000001100111011101001011110001100010101001110111010010111100011000101010011101110100101111000110001010 y
b101011010011100100000001000000100100001100010011100011000000111001000011000100111000110000001110010000110001001110001100000011 z
#69000
0#
#70000
1#
b11 x
b10011101110100101111000110001010100111011101001011110001100010101001110111010010111100011000101010011101110100101111000110001010 y
b10010000110001001110001100000011100100001100010011100011000000111001000011000100111000110000001110010000110001001110001100000011 z
b10010000110001001110001100000011 #!
b10010000110001001110001100000011 %!
b10011101110100101111000110001010 "!
b10011101110100101111000110001010 $!
b101100101000000000010010101001001110011010011100011001010011110 !!
b101100101000000000010010101001001110011010011100011001010011110 ~
b10101010101000001101001100010101110011010011100011001010011110 }
b1110011010011100011001010011110 |
#71000
0#
#72000
1#
b100 x
1v
b1110011010011100011001010011110 w
#73000
0#
#74000
1#
b0 x
0t
1s
1r
1q
1o
0m
0l
1k
1i
0h
0g
1e
1d
1b
1a
1`
1[
0Y
1X
0T
1S
1Q
1P
1O
1K
0H
0F
1C
1B
0A
0>
0=
1<
0:
09
18
0v
b10011101110100101111000110001010100111011101001011110001100010101001110111010010111100011000101010100110010011100101010111111100 y
b10010000110001001110001100000011100100001100010011100011000000111001000011000100111000110000001110100100111111111001010001011101 z
#75000
0#
#76000
1#
b1 x
b10011101110100101111000110001010100111011101001011110001100010101010011001001110010101011111110010100110010011100101010111111100 y
b10010000110001001110001100000011100100001100010011100011000000111010010011111111100101000101110110100100111111111001010001011101 z
#77000
0#
#78000
1#
b10 x
b10011101110100101111000110001010101001100100111001010101111111001010011001001110010101011111110010100110010011100101010111111100 y
b10010000110001001110001100000011101001001111111110010100010111011010010011111111100101000101110110100100111111111001010001011101 z
#79000
0#
#80000
1#
b11 x
b10100110010011100101010111111100101001100100111001010101111111001010011001001110010101011111110010100110010011100101010111111100 y
b10100100111111111001010001011101101001001111111110010100010111011010010011111111100101000101110110100100111111111001010001011101 z
b10100100111111111001010001011101 #!
b10100100111111111001010001011101 %!
b10100110010011100101010111111100 "!
b10100110010011100101010111111100 $!
b110101100110000001101110111111011001010001011101110110010001100 !!
b110101100110000001101110111111011001010001011101110110010001100 ~
b1111111100010010011010010010111001010001011101110110010001100 }
b11001010001011101110110010001100 |
#81000
0#
#82000
1#
b100 x
1v
b11001010001011101110110010001100 w
#83000
0#
#84000
1#
b0 x
0u
1t
0s
0q
1p
1l
0k
1j
0i
1h
0f
0d
0c
0b
0a
0^
1\
0[
1Y
1W
0V
1U
0P
0O
0N
0M
1L
0K
0I
1F
1E
0C
1>
0;
1:
08
0v
b10100110010011100101010111111100101001100100111001010101111111001010011001001110010101011111110010001010110010111100001000011101 y
b10100100111111111001010001011101101001001111111110010100010111011010010011111111100101000101110101110010011000010010101001101010 z
#85000
0#
#86000
1#
b1 x
b10100110010011100101010111111100101001100100111001010101111111001000101011001011110000100001110110001010110010111100001000011101 y
b10100100111111111001010001011101101001001111111110010100010111010111001001100001001010100110101001110010011000010010101001101010 z
#87000
0#
#88000
1#
b10 x
b10100110010011100101010111111100100010101100101111000010000111011000101011001011110000100001110110001010110010111100001000011101 y
b10100100111111111001010001011101011100100110000100101010011010100111001001100001001010100110101001110010011000010010101001101010 z
#89000
0#
#90000
1#
b11 x
b10001010110010111100001000011101100010101100101111000010000111011000101011001011110000100001110110001010110010111100001000011101 y
b1110010011000010010101001101010011100100110000100101010011010100111001001100001001010100110101001110010011000010010101001101010 z
b1110010011000010010101001101010 #!
b1110010011000010010101001101010 %!
b10001010110010111100001000011101 "!
b10001010110010111100001000011101 $!
b11111000000011011010101010010001011101001101000010001000000010 !!
b11111000000011011010101010010001011101001101000010001000000010 ~
b1100101110100010010000000011101001011101001101000010001000000010 }
b1011101001101000010001000000010 |
#91000
0#
#92000
1#
b100 x
1v
b1011101001101000010001000000010 w
#93000
0#
#94000
1#
b0 x
1u
1s
1q
0o
1m
0l
1k
0j
1i
1d
1c
1a
0_
1]
1[
0Y
0X
0W
0U
1T
0R
1M
0L
1I
1H
0G
0B
1A
1@
0>
0<
19
06
0v
b10001010110010111100001000011101100010101100101111000010000111011000101011001011110000100001110100011000011100111011000100010110 y
b1110010011000010010101001101010011100100110000100101010011010100111001001100001001010100110101000000111001101110011010100111111 z
#95000
0#
#96000
1#
b1 x
b10001010110010111100001000011101100010101100101111000010000111010001100001110011101100010001011000011000011100111011000100010110 y
b1110010011000010010101001101010011100100110000100101010011010100000011100110111001101010011111100000111001101110011010100111111 z
#97000
0#
#98000
1#
b10 x
b10001010110010111100001000011101000110000111001110110001000101100001100001110011101100010001011000011000011100111011000100010110 y
b1110010011000010010101001101010000001110011011100110101001111110000011100110111001101010011111100000111001101110011010100111111 z
#99000
0#
#100000
1#
b11 x
b11000011100111011000100010110000110000111001110110001000101100001100001110011101100010001011000011000011100111011000100010110 y
b111001101110011010100111111000001110011011100110101001111110000011100110111001101010011111100000111001101110011010100111111 z
b111001101110011010100111111 #!
b111001101110011010100111111 %!
b11000011100111011000100010110 "!
b11000011100111011000100010110 $!
b10110000011011111100100010011101110111000010001001101010 !!
b10110000011011111100100010011101110111000010001001101010 ~
b10110000011011111100100010011101110111000010001001101010 }
b10011101110111000010001001101010 |
#101000
0#
#102000
1#
b100 x
1v
b10011101110111000010001001101010 w
#103000
0#
#104000
1#
b0 x
0u
0t
0s
0q
1n
0h
1g
0e
0d
0a
1_
1^
0[
1Y
1W
1V
1U
0S
0Q
1P
0M
1L
1K
1G
0F
0D
1C
0A
0?
1>
1<
09
18
16
0v
b11000011100111011000100010110000110000111001110110001000101100001100001110011101100010001011010101010101001010111011000100011 y
b111001101110011010100111111000001110011011100110101001111110000011100110111001101010011111111010011111001000101010110101000 z
#105000
0#
#106000
1#
b1 x
b11000011100111011000100010110000110000111001110110001000101101010101010100101011101100010001110101010101001010111011000100011 y
b111001101110011010100111111000001110011011100110101001111111101001111100100010101011010100011010011111001000101010110101000 z
#107000
0#
#108000
1#
b10 x
b11000011100111011000100010110101010101010010101110110001000111010101010100101011101100010001110101010101001010111011000100011 y
b111001101110011010100111111110100111110010001010101101010001101001111100100010101011010100011010011111001000101010110101000 z
#109000
0#
#110000
1#
b11 x
b10101010101001010111011000100011101010101010010101110110001000111010101010100101011101100010001110101010101001010111011000100011 y
b11010011111001000101010110101000110100111110010001010101101010001101001111100100010101011010100011010011111001000101010110101000 z
b11010011111001000101010110101000 #!
b11010011111001000101010110101000 %!
b10101010101001010111011000100011 "!
b10101010101001010111011000100011 $!
b1000110100111110100101001101010011111100111110110010010111111000 !!
b1000110100111110100101001101010011111100111110110010010111111000 ~
b111010110100110010010000100111111100111110110010010111111000 }
b11111100111110110010010111111000 |
#111000
0#
#112000
1#
b100 x
1v
b11111100111110110010010111111000 w
#113000
0#
#114000
1#
b0 x
1u
1s
0r
0n
0m
0i
1f
1d
0c
0`
0_
0^
0\
1[
1Z
0Y
1X
0W
0V
0U
0T
1Q
0P
1N
1J
0I
0G
1F
0E
0C
1?
1=
19
0v
b10101010101001010111011000100011101010101010010101110110001000111010101010100101011101100010001110111011111000001010111010010000 y
b11010011111001000101010110101000110100111110010001010101101010001101001111100100010101011010100000101101000000101100010000100101 z
#115000
0#
#116000
1#
b1 x
b10101010101001010111011000100011101010101010010101110110001000111011101111100000101011101001000010111011111000001010111010010000 y
b11010011111001000101010110101000110100111110010001010101101010000010110100000010110001000010010100101101000000101100010000100101 z
#117000
0#
#118000
1#
b10 x
b10101010101001010111011000100011101110111110000010101110100100001011101111100000101011101001000010111011111000001010111010010000 y
b11010011111001000101010110101000001011010000001011000100001001010010110100000010110001000010010100101101000000101100010000100101 z
#119000
0#
#120000
1#
b11 x
b10111011111000001010111010010000101110111110000010101110100100001011101111100000101011101001000010111011111000001010111010010000 y
b101101000000101100010000100101001011010000001011000100001001010010110100000010110001000010010100101101000000101100010000100101 z
b101101000000101100010000100101 #!
b101101000000101100010000100101 %!
b10111011111000001010111010010000 "!
b10111011111000001010111010010000 $!
b10000100001000100001100110001111011010001111110111101011010000 !!
b10000100001000100001100110001111011010001111110111101011010000 ~
b1111010000000101110000100011111011011010001111110111101011010000 }
b11011010001111110111101011010000 |
#121000
0#
#122000
1#
b100 x
1v
b11011010001111110111101011010000 w
#123000
0#
#124000
1#
b0 x
1t
0s
1r
1q
0p
1o
1m
0k
0g
0d
1c
1b
1`
1^
1Y
0X
1V
1T
0Q
1M
0H
1G
1E
1D
1A
0=
1;
09
17
06
0v
b10111011111000001010111010010000101110111110000010101110100100001011101111100000101011101001000001101110111100111100111110000010 y
b101101000000101100010000100101001011010000001011000100001001010010110100000010110001000010010110011101101011001000000101011011 z
#125000
0#
#126000
1#
b1 x
b10111011111000001010111010010000101110111110000010101110100100000110111011110011110011111000001001101110111100111100111110000010 y
b101101000000101100010000100101001011010000001011000100001001011001110110101100100000010101101110011101101011001000000101011011 z
#127000
0#
#128000
1#
b10 x
b10111011111000001010111010010000011011101111001111001111100000100110111011110011110011111000001001101110111100111100111110000010 y
b101101000000101100010000100101100111011010110010000001010110111001110110101100100000010101101110011101101011001000000101011011 z
#129000
0#
#130000
1#
b11 x
b1101110111100111100111110000010011011101111001111001111100000100110111011110011110011111000001001101110111100111100111110000010 y
b10011101101011001000000101011011100111011010110010000001010110111001110110101100100000010101101110011101101011001000000101011011 z
b10011101101011001000000101011011 #!
b10011101101011001000000101011011 %!
b1101110111100111100111110000010 "!
b1101110111100111100111110000010 $!
b100010001010110010010100010001001110001100100110100010100110110 !!
b100010001010110010010100010001001110001100100110100010100110110 ~
b1101010101100010011110101010000001110001100100110100010100110110 }
b1110001100100110100010100110110 |
#131000
0#
#132000
1#
b100 x
1v
b1110001100100110100010100110110 w
#133000
0#
#134000
1#
b0 x
0t
0r
1p
0o
1l
1k
1h
1g
1d
0c
1a
1_
0^
0]
0Z
0Y
1X
1W
1Q
1P
1O
0L
0K
0J
1H
0E
0D
0A
0;
08
0v
b1101110111100111100111110000010011011101111001111001111100000100110111011110011110011111000001001001010111000001110000111110010 y
b10011101101011001000000101011011100111011010110010000001010110111001110110101100100000010101101111100100011110101110011100110001 z
#135000
0#
#136000
1#
b1 x
b1101110111100111100111110000010011011101111001111001111100000100100101011100000111000011111001001001010111000001110000111110010 y
b10011101101011001000000101011011100111011010110010000001010110111110010001111010111001110011000111100100011110101110011100110001 z
#137000
0#
#138000
1#
b10 x
b1101110111100111100111110000010010010101110000011100001111100100100101011100000111000011111001001001010111000001110000111110010 y
b10011101101011001000000101011011111001000111101011100111001100011110010001111010111001110011000111100100011110101110011100110001 z
#139000
0#
#140000
1#
b11 x
b1001010111000001110000111110010010010101110000011100001111100100100101011100000111000011111001001001010111000001110000111110010 y
b11100100011110101110011100110001111001000111101011100111001100011110010001111010111001110011000111100100011110101110011100110001 z
b11100100011110101110011100110001 #!
b11100100011110101110011100110001 %!
b1001010111000001110000111110010 "!
b1001010111000001110000111110010 $!
b100001011010100001111000000011001110110010000001001110101010010 !!
b100001011010100001111000000011001110110010000001001110101010010 ~
b1111011111110011010110100001010001110110010000001001110101010010 }
b1110110010000001001110101010010 |
#141000
0#
#142000
1#
b100 x
1v
b1110110010000001001110101010010 w
#143000
0#
#144000
1#
b0 x
0u
1s
0q
1o
0m
1i
0f
1e
0`
1\
0[
1U
0T
1S
1R
0Q
0P
1L
1J
0F
1E
1C
1A
0?
0>
0:
18
07
0v
b1001010111000001110000111110010010010101110000011100001111100100100101011100000111000011111001000100010001101010110101111001101 y
b11100100011110101110011100110001111001000111101011100111001100011110010001111010111001110011000111100010010110110111011001100100 z
#145000
0#
#146000
1#
b1 x
b1001010111000001110000111110010010010101110000011100001111100100010001000110101011010111100110100100010001101010110101111001101 y
b11100100011110101110011100110001111001000111101011100111001100011110001001011011011101100110010011100010010110110111011001100100 z
#147000
0#
#148000
1#
b10 x
b1001010111000001110000111110010001000100011010101101011110011010010001000110101011010111100110100100010001101010110101111001101 y
b11100100011110101110011100110001111000100101101101110110011001001110001001011011011101100110010011100010010110110111011001100100 z
#149000
0#
#150000
1#
b11 x
b100010001101010110101111001101001000100011010101101011110011010010001000110101011010111100110100100010001101010110101111001101 y
b11100010010110110111011001100100111000100101101101110110011001001110001001011011011101100110010011100010010110110111011001100100 z
b11100010010110110111011001100100 #!
b11100010010110110111011001100100 %!
b100010001101010110101111001101 "!
b100010001101010110101111001101 $!
b1111000111111011000011111101001001000011011011001101000010100 !!
b1111000111111011000011111101001001000011011011001101000010100 ~
b1111110000001001111101100010110101001000011011011001101000010100 }
b1001000011011011001101000010100 |
#151000
0#
#152000
1#
b100 x
1v
b1001000011011011001101000010100 w
#153000
0#
#154000
1#
b0 x
1t
0s
1r
1n
0h
0g
0e
1[
1Z
1Y
0W
1T
0S
1P
0O
0N
0M
0L
1F
0E
1D
0@
1?
1>
0<
1;
1:
19
08
0v
b100010001101010110101111001101001000100011010101101011110011010010001000110101011010111100110100011100110101101110100000101011 y
b11100010010110110111011001100100111000100101101101110110011001001110001001011011011101100110010010111110010110100001011011101010 z
#155000
0#
#156000
1#
b1 x
b100010001101010110101111001101001000100011010101101011110011010001110011010110111010000010101100011100110101101110100000101011 y
b11100010010110110111011001100100111000100101101101110110011001001011111001011010000101101110101010111110010110100001011011101010 z
#157000
0#
#158000
1#
b10 x
b100010001101010110101111001101000111001101011011101000001010110001110011010110111010000010101100011100110101101110100000101011 y
b11100010010110110111011001100100101111100101101000010110111010101011111001011010000101101110101010111110010110100001011011101010 z
#159000
0#
#160000
1#
b11 x
b11100110101101110100000101011000111001101011011101000001010110001110011010110111010000010101100011100110101101110100000101011 y
b10111110010110100001011011101010101111100101101000010110111010101011111001011010000101101110101010111110010110100001011011101010 z
b10111110010110100001011011101010 #!
b10111110010110100001011011101010 %!
b11100110101101110100000101011 "!
b11100110101101110100000101011 $!
b1010101110001101001100111001001011101100000011110100101001110 !!
b1010101110001101001100111001001011101100000011110100101001110 ~
b1111100010011010101111100100011101011101100000011110100101001110 }
b1011101100000011110100101001110 |
#161000
0#
#162000
1#
b100 x
1v
b1011101100000011110100101001110 w
#163000
0#
#164000
1#
b0 x
1s
0r
1q
1m
0l
0k
1g
1f
1`
1^
0\
0[
0Z
0Y
1W
0V
0T
0R
1Q
0P
1N
1L
0H
0G
0F
1E
0D
0C
1@
0>
1=
09
18
16
0v
b11100110101101110100000101011000111001101011011101000001010110001110011010110111010000010101110101101011100010000101010010001 y
b10111110010110100001011011101010101111100101101000010110111010101011111001011010000101101110101001100000111110101101000111110110 z
#165000
0#
#166000
1#
b1 x
b11100110101101110100000101011000111001101011011101000001010111010110101110001000010101001000110101101011100010000101010010001 y
b10111110010110100001011011101010101111100101101000010110111010100110000011111010110100011111011001100000111110101101000111110110 z
#167000
0#
#168000
1#
b10 x
b11100110101101110100000101011101011010111000100001010100100011010110101110001000010101001000110101101011100010000101010010001 y
b10111110010110100001011011101010011000001111101011010001111101100110000011111010110100011111011001100000111110101101000111110110 z
#169000
0#
