src/sim/mult/dump_file.vcd
$date
	Thu Dec 30 21:10:46 2021
$end
$version
	QuestaSim Version 10.7c
$end
$timescale
	1ps
$end

$scope module tb_module $end

$scope module multiplier_inst $end
$var parameter 32 ! MUL_STAGES $end
$var wire 1 " clk $end
$var wire 1 # reset_n $end
$var wire 1 $ opcode_i [6] $end
$var wire 1 % opcode_i [5] $end
$var wire 1 & opcode_i [4] $end
$var wire 1 ' opcode_i [3] $end
$var wire 1 ( opcode_i [2] $end
$var wire 1 ) opcode_i [1] $end
$var wire 1 * opcode_i [0] $end
$var wire 1 + funct7_i [6] $end
$var wire 1 , funct7_i [5] $end
$var wire 1 - funct7_i [4] $end
$var wire 1 . funct7_i [3] $end
$var wire 1 / funct7_i [2] $end
$var wire 1 0 funct7_i [1] $end
$var wire 1 1 funct7_i [0] $end
$var wire 1 2 funct3_i [2] $end
$var wire 1 3 funct3_i [1] $end
$var wire 1 4 funct3_i [0] $end
$var wire 1 5 op1_data_i [31] $end
$var wire 1 6 op1_data_i [30] $end
$var wire 1 7 op1_data_i [29] $end
$var wire 1 8 op1_data_i [28] $end
$var wire 1 9 op1_data_i [27] $end
$var wire 1 : op1_data_i [26] $end
$var wire 1 ; op1_data_i [25] $end
$var wire 1 < op1_data_i [24] $end
$var wire 1 = op1_data_i [23] $end
$var wire 1 > op1_data_i [22] $end
$var wire 1 ? op1_data_i [21] $end
$var wire 1 @ op1_data_i [20] $end
$var wire 1 A op1_data_i [19] $end
$var wire 1 B op1_data_i [18] $end
$var wire 1 C op1_data_i [17] $end
$var wire 1 D op1_data_i [16] $end
$var wire 1 E op1_data_i [15] $end
$var wire 1 F op1_data_i [14] $end
$var wire 1 G op1_data_i [13] $end
$var wire 1 H op1_data_i [12] $end
$var wire 1 I op1_data_i [11] $end
$var wire 1 J op1_data_i [10] $end
$var wire 1 K op1_data_i [9] $end
$var wire 1 L op1_data_i [8] $end
$var wire 1 M op1_data_i [7] $end
$var wire 1 N op1_data_i [6] $end
$var wire 1 O op1_data_i [5] $end
$var wire 1 P op1_data_i [4] $end
$var wire 1 Q op1_data_i [3] $end
$var wire 1 R op1_data_i [2] $end
$var wire 1 S op1_data_i [1] $end
$var wire 1 T op1_data_i [0] $end
$var wire 1 U op2_data_i [31] $end
$var wire 1 V op2_data_i [30] $end
$var wire 1 W op2_data_i [29] $end
$var wire 1 X op2_data_i [28] $end
$var wire 1 Y op2_data_i [27] $end
$var wire 1 Z op2_data_i [26] $end
$var wire 1 [ op2_data_i [25] $end
$var wire 1 \ op2_data_i [24] $end
$var wire 1 ] op2_data_i [23] $end
$var wire 1 ^ op2_data_i [22] $end
$var wire 1 _ op2_data_i [21] $end
$var wire 1 ` op2_data_i [20] $end
$var wire 1 a op2_data_i [19] $end
$var wire 1 b op2_data_i [18] $end
$var wire 1 c op2_data_i [17] $end
$var wire 1 d op2_data_i [16] $end
$var wire 1 e op2_data_i [15] $end
$var wire 1 f op2_data_i [14] $end
$var wire 1 g op2_data_i [13] $end
$var wire 1 h op2_data_i [12] $end
$var wire 1 i op2_data_i [11] $end
$var wire 1 j op2_data_i [10] $end
$var wire 1 k op2_data_i [9] $end
$var wire 1 l op2_data_i [8] $end
$var wire 1 m op2_data_i [7] $end
$var wire 1 n op2_data_i [6] $end
$var wire 1 o op2_data_i [5] $end
$var wire 1 p op2_data_i [4] $end
$var wire 1 q op2_data_i [3] $end
$var wire 1 r op2_data_i [2] $end
$var wire 1 s op2_data_i [1] $end
$var wire 1 t op2_data_i [0] $end
$var reg 1 u valid_result_o $end
$var reg 32 v result_o [31:0] $end
$var reg 160 w op1_data_q [159:0] $end
$var reg 160 x op2_data_q [159:0] $end
$var reg 5 y valid_instr_q [4:0] $end
$upscope $end
$upscope $end
$enddefinitions $end
#0
$dumpvars
xu
bx v
bx w
bx x
bx y
b101 !
xt
xs
xr
xq
xp
xo
xn
xm
xl
xk
xj
xi
xh
xg
xf
xe
xd
xc
xb
xa
x`
x_
x^
x]
x\
x[
xZ
xY
xX
xW
xV
xU
xT
xS
xR
xQ
xP
xO
xN
xM
xL
xK
xJ
xI
xH
xG
xF
xE
xD
xC
xB
xA
x@
x?
x>
x=
x<
x;
x:
x9
x8
x7
x6
x5
04
03
02
01
00
0/
0.
0-
0,
0+
0*
0)
0(
0'
0&
0%
0$
0#
1"
$end
#1000
0"
#2000
1"
bx000x y
0u
bx0000 y
1#
#3000
0"
#4000
1"
b0 y
xu
0t
1s
0r
0q
1p
1o
0n
1m
0l
0k
0j
0i
0h
1g
0f
1e
0d
1c
1b
1a
0`
0_
1^
0]
0\
1[
1Z
0Y
0X
1W
0V
0U
0T
1S
0R
0Q
1P
1O
1N
0M
1L
1K
1J
0I
0H
0G
0F
0E
1D
0C
1B
1A
1@
1?
0>
0=
1<
0;
1:
19
08
07
06
15
11
1*
1)
1&
1%
#5000
0"
#6000
1"
b1 y
0u
#7000
0"
#8000
1"
bx10001101001111010000011101110010 w
bx00100110010011101010000010110010 x
b11 y
#9000
0"
#10000
1"
bx1000110100111101000001110111001010001101001111010000011101110010 w
bx0010011001001110101000001011001000100110010011101010000010110010 x
b111 y
#11000
0"
#12000
1"
bx100011010011110100000111011100101000110100111101000001110111001010001101001111010000011101110010 w
bx001001100100111010100000101100100010011001001110101000001011001000100110010011101010000010110010 x
b1111 y
#13000
0"
#14000
1"
bx10001101001111010000011101110010100011010011110100000111011100101000110100111101000001110111001010001101001111010000011101110010 w
bx00100110010011101010000010110010001001100100111010100000101100100010011001001110101000001011001000100110010011101010000010110010 x
b11111 y
0s
0m
1l
1j
1h
1f
1d
0c
0b
1`
0^
1\
1Y
0W
0S
0O
0N
0L
1I
1G
1F
0A
0@
0?
1>
1=
1;
0:
09
17
#15000
0"
#16000
1"
bx10001101001111010000011101110010100011010011110100000111011100101000110100111101000001110111001010100011110001010110111000010000 w
bx00100110010011101010000010110010001001100100111010100000101100100010011001001110101000001011001000001111000110011111010100110000 x
1u
b1000110100111101000001110111001010001101001111010000011101110010100011010011110100000111011100101000110100111101000001110111001010100011110001010110111000010000 w
b10011001001110101000001011001000100110010011101010000010110010001001100100111010100000101100100010011001001110101000001011001000001111000110011111010100110000 x
#17000
0"
#18000
1"
b1000110100111101000001110111001010001101001111010000011101110010100011010011110100000111011100101010001111000101011011100001000010100011110001010110111000010000 w
b10011001001110101000001011001000100110010011101010000010110010001001100100111010100000101100100000111100011001111101010011000000001111000110011111010100110000 x
b10001001110100100110110101000100 v
#19000
0"
#20000
1"
b1000110100111101000001110111001010001101001111010000011101110010101000111100010101101110000100001010001111000101011011100001000010100011110001010110111000010000 w
b10011001001110101000001011001000100110010011101010000010110010000011110001100111110101001100000000111100011001111101010011000000001111000110011111010100110000 x
#21000
0"
#22000
1"
b1000110100111101000001110111001010100011110001010110111000010000101000111100010101101110000100001010001111000101011011100001000010100011110001010110111000010000 w
b10011001001110101000001011001000001111000110011111010100110000000011110001100111110101001100000000111100011001111101010011000000001111000110011111010100110000 x
#23000
0"
#24000
1"
b1010001111000101011011100001000010100011110001010110111000010000101000111100010101101110000100001010001111000101011011100001000010100011110001010110111000010000 w
b111100011001111101010011000000001111000110011111010100110000000011110001100111110101001100000000111100011001111101010011000000001111000110011111010100110000 x
1s
1r
1m
1i
0h
0e
0d
1c
0`
1^
1]
0\
1X
1V
1T
1R
1O
1M
1L
0I
1E
1A
0=
19
07
#25000
0"
#26000
1"
b1010001111000101011011100001000010100011110001010110111000010000101000111100010101101110000100001010001111000101011011100001000010001011010011011110011110110101 w
b111100011001111101010011000000001111000110011111010100110000000011110001100111110101001100000000111100011001111101010011000001011110110010100110110110110110 x
b1010110111010011111001100000000 v
#27000
0"
#28000
1"
b1010001111000101011011100001000010100011110001010110111000010000101000111100010101101110000100001000101101001101111001111011010110001011010011011110011110110101 w
b111100011001111101010011000000001111000110011111010100110000000011110001100111110101001100000101111011001010011011011011011001011110110010100110110110110110 x
#29000
0"
#30000
1"
b1010001111000101011011100001000010100011110001010110111000010000100010110100110111100111101101011000101101001101111001111011010110001011010011011110011110110101 w
b111100011001111101010011000000001111000110011111010100110000010111101100101001101101101101100101111011001010011011011011011001011110110010100110110110110110 x
#31000
0"
#32000
1"
b1010001111000101011011100001000010001011010011011110011110110101100010110100110111100111101101011000101101001101111001111011010110001011010011011110011110110101 w
b111100011001111101010011000001011110110010100110110110110110010111101100101001101101101101100101111011001010011011011011011001011110110010100110110110110110 x
#33000
0"
#34000
1"
b1000101101001101111001111011010110001011010011011110011110110101100010110100110111100111101101011000101101001101111001111011010110001011010011011110011110110101 w
b101111011001010011011011011011001011110110010100110110110110110010111101100101001101101101101100101111011001010011011011011011001011110110010100110110110110110 x
1t
1q
0o
1n
0l
1h
0g
0f
1e
0c
1b
0a
1_
1\
0Z
0T
0O
0M
0J
1I
0G
0B
1?
0>
1=
0<
0;
09
18
17
#35000
0"
#36000
1"
b1000101101001101111001111011010110001011010011011110011110110101100010110100110111100111101101011000101101001101111001111011010110110000101010011100101100010100 w
b101111011001010011011011011011001011110110010100110110110110110010111101100101001101101101101100101111011001010011011011011011001011011111001001001110011011111 x
b1111111110111001100101110101110 v
#37000
0"
#38000
1"
b1000101101001101111001111011010110001011010011011110011110110101100010110100110111100111101101011011000010101001110010110001010010110000101010011100101100010100 w
b101111011001010011011011011011001011110110010100110110110110110010111101100101001101101101101100101101111100100100111001101111101011011111001001001110011011111 x
#39000
0"
#40000
1"
b1000101101001101111001111011010110001011010011011110011110110101101100001010100111001011000101001011000010101001110010110001010010110000101010011100101100010100 w
b101111011001010011011011011011001011110110010100110110110110110010110111110010010011100110111110101101111100100100111001101111101011011111001001001110011011111 x
#41000
0"
#42000
1"
b1000101101001101111001111011010110110000101010011100101100010100101100001010100111001011000101001011000010101001110010110001010010110000101010011100101100010100 w
b101111011001010011011011011011001011011111001001001110011011111010110111110010010011100110111110101101111100100100111001101111101011011111001001001110011011111 x
#43000
0"
#44000
1"
b1011000010101001110010110001010010110000101010011100101100010100101100001010100111001011000101001011000010101001110010110001010010110000101010011100101100010100 w
b101101111100100100111001101111101011011111001001001110011011111010110111110010010011100110111110101101111100100100111001101111101011011111001001001110011011111 x
0r
0p
1o
1l
1k
0j
1g
0e
1d
1c
0b
0[
1Z
0Y
0X
1T
1S
0R
1Q
1O
1M
0L
1J
1G
0F
0D
1C
1B
0A
1@
0?
1>
0=
1:
08
07
#45000
0"
#46000
1"
b1011000010101001110010110001010010110000101010011100101100010100101100001010100111001011000101001011000010101001110010110001010010000100010101101010111010111011 w
b101101111100100100111001101111101011011111001001001110011011111010110111110010010011100110111110101101111100100100111001101111101000101111000110011101111101011 x
b1010101011110000001011001101100 v
#47000
0"
#48000
1"
b1011000010101001110010110001010010110000101010011100101100010100101100001010100111001011000101001000010001010110101011101011101110000100010101101010111010111011 w
b101101111100100100111001101111101011011111001001001110011011111010110111110010010011100110111110100010111100011001110111110101101000101111000110011101111101011 x
#49000
0"
#50000
1"
b1011000010101001110010110001010010110000101010011100101100010100100001000101011010101110101110111000010001010110101011101011101110000100010101101010111010111011 w
b101101111100100100111001101111101011011111001001001110011011111010001011110001100111011111010110100010111100011001110111110101101000101111000110011101111101011 x
#51000
0"
#52000
1"
b1011000010101001110010110001010010000100010101101010111010111011100001000101011010101110101110111000010001010110101011101011101110000100010101101010111010111011 w
b101101111100100100111001101111101000101111000110011101111101011010001011110001100111011111010110100010111100011001110111110101101000101111000110011101111101011 x
#53000
0"
#54000
1"
b1000010001010110101011101011101110000100010101101010111010111011100001000101011010101110101110111000010001010110101011101011101110000100010101101010111010111011 w
b100010111100011001110111110101101000101111000110011101111101011010001011110001100111011111010110100010111100011001110111110101101000101111000110011101111101011 x
0t
0s
0q
0o
0m
0l
0k
0i
0h
0g
1f
0d
1b
1a
0_
0]
1[
0Z
1Y
1W
0V
0S
0Q
0P
0O
1N
0M
0K
0I
0G
1F
0E
1A
1?
1;
0:
17
16
#55000
0"
#56000
1"
b1000010001010110101011101011101110000100010101101010111010111011100001000101011010101110101110111000010001010110101011101011101111100010011111100100010001000001 w
b100010111100011001110111110101101000101111000110011101111101011010001011110001100111011111010110100010111100011001110111110101100101011010011100100000001000000 x
b11001100101010000111111010101001 v
#57000
0"
#58000
1"
b1000010001010110101011101011101110000100010101101010111010111011100001000101011010101110101110111110001001111110010001000100000111100010011111100100010001000001 w
b100010111100011001110111110101101000101111000110011101111101011010001011110001100111011111010110010101101001110010000000100000000101011010011100100000001000000 x
#59000
0"
#60000
1"
b1000010001010110101011101011101110000100010101101010111010111011111000100111111001000100010000011110001001111110010001000100000111100010011111100100010001000001 w
b100010111100011001110111110101101000101111000110011101111101011001010110100111001000000010000000010101101001110010000000100000000101011010011100100000001000000 x
#61000
0"
#62000
1"
b1000010001010110101011101011101111100010011111100100010001000001111000100111111001000100010000011110001001111110010001000100000111100010011111100100010001000001 w
b100010111100011001110111110101100101011010011100100000001000000001010110100111001000000010000000010101101001110010000000100000000101011010011100100000001000000 x
#63000
0"
#64000
1"
b1110001001111110010001000100000111100010011111100100010001000001111000100111111001000100010000011110001001111110010001000100000111100010011111100100010001000001 w
b10101101001110010000000100000000101011010011100100000001000000001010110100111001000000010000000010101101001110010000000100000000101011010011100100000001000000 x
1t
1s
0n
1l
1k
1g
1e
0c
0a
1]
0\
0[
0Y
1X
0W
1U
0T
1S
1Q
0N
1M
1L
0J
1H
1G
1E
0B
0A
0?
1=
1<
0;
1:
19
18
07
06
#65000
0"
#66000
1"
b1110001001111110010001000100000111100010011111100100010001000001111000100111111001000100010000011110001001111110010001000100000110011101110100101111000110001010 w
b10101101001110010000000100000000101011010011100100000001000000001010110100111001000000010000000010101101001110010000000100000010010000110001001110001100000011 x
b11100111011011110101000001000000 v
#67000
0"
#68000
1"
b1110001001111110010001000100000111100010011111100100010001000001111000100111111001000100010000011001110111010010111100011000101010011101110100101111000110001010 w
b10101101001110010000000100000000101011010011100100000001000000001010110100111001000000010000001001000011000100111000110000001110010000110001001110001100000011 x
#69000
0"
#70000
1"
b1110001001111110010001000100000111100010011111100100010001000001100111011101001011110001100010101001110111010010111100011000101010011101110100101111000110001010 w
b10101101001110010000000100000000101011010011100100000001000000100100001100010011100011000000111001000011000100111000110000001110010000110001001110001100000011 x
#71000
0"
#72000
1"
b1110001001111110010001000100000110011101110100101111000110001010100111011101001011110001100010101001110111010010111100011000101010011101110100101111000110001010 w
b10101101001110010000000100000010010000110001001110001100000011100100001100010011100011000000111001000011000100111000110000001110010000110001001110001100000011 x
#73000
0"
#74000
1"
b1001110111010010111100011000101010011101110100101111000110001010100111011101001011110001100010101001110111010010111100011000101010011101110100101111000110001010 w
b1001000011000100111000110000001110010000110001001110001100000011100100001100010011100011000000111001000011000100111000110000001110010000110001001110001100000011 x
0s
1r
1q
1p
1n
0l
0k
1j
1h
0g
0f
1d
1c
1a
1`
1_
1Z
0X
1W
0S
1R
1P
1O
1N
1J
0G
0E
1B
1A
0@
0=
0<
1;
09
08
17
#75000
0"
#76000
1"
b1001110111010010111100011000101010011101110100101111000110001010100111011101001011110001100010101001110111010010111100011000101010100110010011100101010111111100 w
b1001000011000100111000110000001110010000110001001110001100000011100100001100010011100011000000111001000011000100111000110000001110100100111111111001010001011101 x
b1110011010011100011001010011110 v
#77000
0"
#78000
1"
b1001110111010010111100011000101010011101110100101111000110001010100111011101001011110001100010101010011001001110010101011111110010100110010011100101010111111100 w
b1001000011000100111000110000001110010000110001001110001100000011100100001100010011100011000000111010010011111111100101000101110110100100111111111001010001011101 x
#79000
0"
#80000
1"
b1001110111010010111100011000101010011101110100101111000110001010101001100100111001010101111111001010011001001110010101011111110010100110010011100101010111111100 w
b1001000011000100111000110000001110010000110001001110001100000011101001001111111110010100010111011010010011111111100101000101110110100100111111111001010001011101 x
#81000
0"
#82000
1"
b1001110111010010111100011000101010100110010011100101010111111100101001100100111001010101111111001010011001001110010101011111110010100110010011100101010111111100 w
b1001000011000100111000110000001110100100111111111001010001011101101001001111111110010100010111011010010011111111100101000101110110100100111111111001010001011101 x
#83000
0"
#84000
1"
b1010011001001110010101011111110010100110010011100101010111111100101001100100111001010101111111001010011001001110010101011111110010100110010011100101010111111100 w
b1010010011111111100101000101110110100100111111111001010001011101101001001111111110010100010111011010010011111111100101000101110110100100111111111001010001011101 x
0t
1s
0r
0p
1o
1k
0j
1i
0h
1g
0e
0c
0b
0a
0`
0]
1[
0Z
1X
1V
0U
1T
0O
0N
0M
0L
1K
0J
0H
1E
1D
0B
1=
0:
19
07
#85000
0"
#86000
1"
b1010011001001110010101011111110010100110010011100101010111111100101001100100111001010101111111001010011001001110010101011111110010001010110010111100001000011101 w
b1010010011111111100101000101110110100100111111111001010001011101101001001111111110010100010111011010010011111111100101000101110101110010011000010010101001101010 x
b11001010001011101110110010001100 v
#87000
0"
#88000
1"
b1010011001001110010101011111110010100110010011100101010111111100101001100100111001010101111111001000101011001011110000100001110110001010110010111100001000011101 w
b1010010011111111100101000101110110100100111111111001010001011101101001001111111110010100010111010111001001100001001010100110101001110010011000010010101001101010 x
#89000
0"
#90000
1"
b1010011001001110010101011111110010100110010011100101010111111100100010101100101111000010000111011000101011001011110000100001110110001010110010111100001000011101 w
b1010010011111111100101000101110110100100111111111001010001011101011100100110000100101010011010100111001001100001001010100110101001110010011000010010101001101010 x
#91000
0"
#92000
1"
b1010011001001110010101011111110010001010110010111100001000011101100010101100101111000010000111011000101011001011110000100001110110001010110010111100001000011101 w
b1010010011111111100101000101110101110010011000010010101001101010011100100110000100101010011010100111001001100001001010100110101001110010011000010010101001101010 x
#93000
0"
#94000
1"
b1000101011001011110000100001110110001010110010111100001000011101100010101100101111000010000111011000101011001011110000100001110110001010110010111100001000011101 w
b111001001100001001010100110101001110010011000010010101001101010011100100110000100101010011010100111001001100001001010100110101001110010011000010010101001101010 x
1t
1r
1p
0n
1l
0k
1j
0i
1h
1c
1b
1`
0^
1\
1Z
0X
0W
0V
0T
1S
0Q
1L
0K
1H
1G
0F
0A
1@
1?
0=
0;
18
05
#95000
0"
#96000
1"
b1000101011001011110000100001110110001010110010111100001000011101100010101100101111000010000111011000101011001011110000100001110100011000011100111011000100010110 w
b111001001100001001010100110101001110010011000010010101001101010011100100110000100101010011010100111001001100001001010100110101000000111001101110011010100111111 x
b1011101001101000010001000000010 v
#97000
0"
#98000
1"
b1000101011001011110000100001110110001010110010111100001000011101100010101100101111000010000111010001100001110011101100010001011000011000011100111011000100010110 w
b111001001100001001010100110101001110010011000010010101001101010011100100110000100101010011010100000011100110111001101010011111100000111001101110011010100111111 x
#99000
0"
#100000
1"
b1000101011001011110000100001110110001010110010111100001000011101000110000111001110110001000101100001100001110011101100010001011000011000011100111011000100010110 w
b111001001100001001010100110101001110010011000010010101001101010000001110011011100110101001111110000011100110111001101010011111100000111001101110011010100111111 x
#101000
0"
#102000
1"
b1000101011001011110000100001110100011000011100111011000100010110000110000111001110110001000101100001100001110011101100010001011000011000011100111011000100010110 w
b111001001100001001010100110101000000111001101110011010100111111000001110011011100110101001111110000011100110111001101010011111100000111001101110011010100111111 x
#103000
0"
#104000
1"
b1100001110011101100010001011000011000011100111011000100010110000110000111001110110001000101100001100001110011101100010001011000011000011100111011000100010110 w
b11100110111001101010011111100000111001101110011010100111111000001110011011100110101001111110000011100110111001101010011111100000111001101110011010100111111 x
0t
0s
0r
0p
1m
0g
1f
0d
0c
0`
1^
1]
0Z
1X
1V
1U
1T
0R
0P
1O
0L
1K
1J
1F
0E
0C
1B
0@
0>
1=
1;
08
17
15
#105000
0"
#106000
1"
b1100001110011101100010001011000011000011100111011000100010110000110000111001110110001000101100001100001110011101100010001011010101010101001010111011000100011 w
b11100110111001101010011111100000111001101110011010100111111000001110011011100110101001111110000011100110111001101010011111111010011111001000101010110101000 x
b10011101110111000010001001101010 v
#107000
0"
#108000
1"
b1100001110011101100010001011000011000011100111011000100010110000110000111001110110001000101101010101010100101011101100010001110101010101001010111011000100011 w
b11100110111001101010011111100000111001101110011010100111111000001110011011100110101001111111101001111100100010101011010100011010011111001000101010110101000 x
#109000
0"
#110000
1"
b1100001110011101100010001011000011000011100111011000100010110101010101010010101110110001000111010101010100101011101100010001110101010101001010111011000100011 w
b11100110111001101010011111100000111001101110011010100111111110100111110010001010101101010001101001111100100010101011010100011010011111001000101010110101000 x
#111000
0"
#112000
1"
b1100001110011101100010001011010101010101001010111011000100011101010101010010101110110001000111010101010100101011101100010001110101010101001010111011000100011 w
b11100110111001101010011111111010011111001000101010110101000110100111110010001010101101010001101001111100100010101011010100011010011111001000101010110101000 x
#113000
0"
#114000
1"
b1010101010100101011101100010001110101010101001010111011000100011101010101010010101110110001000111010101010100101011101100010001110101010101001010111011000100011 w
b1101001111100100010101011010100011010011111001000101010110101000110100111110010001010101101010001101001111100100010101011010100011010011111001000101010110101000 x
1t
1r
0q
0m
0l
0h
1e
1c
0b
0_
0^
0]
0[
1Z
1Y
0X
1W
0V
0U
0T
0S
1P
0O
1M
1I
0H
0F
1E
0D
0B
1>
1<
18
#115000
0"
#116000
1"
b1010101010100101011101100010001110101010101001010111011000100011101010101010010101110110001000111010101010100101011101100010001110111011111000001010111010010000 w
b1101001111100100010101011010100011010011111001000101010110101000110100111110010001010101101010001101001111100100010101011010100000101101000000101100010000100101 x
b11111100111110110010010111111000 v
#117000
0"
#118000
1"
b1010101010100101011101100010001110101010101001010111011000100011101010101010010101110110001000111011101111100000101011101001000010111011111000001010111010010000 w
b1101001111100100010101011010100011010011111001000101010110101000110100111110010001010101101010000010110100000010110001000010010100101101000000101100010000100101 x
#119000
0"
#120000
1"
b1010101010100101011101100010001110101010101001010111011000100011101110111110000010101110100100001011101111100000101011101001000010111011111000001010111010010000 w
b1101001111100100010101011010100011010011111001000101010110101000001011010000001011000100001001010010110100000010110001000010010100101101000000101100010000100101 x
#121000
0"
#122000
1"
b1010101010100101011101100010001110111011111000001010111010010000101110111110000010101110100100001011101111100000101011101001000010111011111000001010111010010000 w
b1101001111100100010101011010100000101101000000101100010000100101001011010000001011000100001001010010110100000010110001000010010100101101000000101100010000100101 x
#123000
0"
#124000
1"
b1011101111100000101011101001000010111011111000001010111010010000101110111110000010101110100100001011101111100000101011101001000010111011111000001010111010010000 w
b10110100000010110001000010010100101101000000101100010000100101001011010000001011000100001001010010110100000010110001000010010100101101000000101100010000100101 x
1s
0r
1q
1p
0o
1n
1l
0j
0f
0c
1b
1a
1_
1]
1X
0W
1U
1S
0P
1L
0G
1F
1D
1C
1@
0<
1:
08
16
05
#125000
0"
#126000
1"
b1011101111100000101011101001000010111011111000001010111010010000101110111110000010101110100100001011101111100000101011101001000001101110111100111100111110000010 w
b10110100000010110001000010010100101101000000101100010000100101001011010000001011000100001001010010110100000010110001000010010110011101101011001000000101011011 x
b11011010001111110111101011010000 v
#127000
0"
#128000
1"
b1011101111100000101011101001000010111011111000001010111010010000101110111110000010101110100100000110111011110011110011111000001001101110111100111100111110000010 w
b10110100000010110001000010010100101101000000101100010000100101001011010000001011000100001001011001110110101100100000010101101110011101101011001000000101011011 x
#129000
0"
#130000
1"
b1011101111100000101011101001000010111011111000001010111010010000011011101111001111001111100000100110111011110011110011111000001001101110111100111100111110000010 w
b10110100000010110001000010010100101101000000101100010000100101100111011010110010000001010110111001110110101100100000010101101110011101101011001000000101011011 x
#131000
0"
#132000
1"
b1011101111100000101011101001000001101110111100111100111110000010011011101111001111001111100000100110111011110011110011111000001001101110111100111100111110000010 w
b10110100000010110001000010010110011101101011001000000101011011100111011010110010000001010110111001110110101100100000010101101110011101101011001000000101011011 x
#133000
0"
#134000
1"
b110111011110011110011111000001001101110111100111100111110000010011011101111001111001111100000100110111011110011110011111000001001101110111100111100111110000010 w
b1001110110101100100000010101101110011101101011001000000101011011100111011010110010000001010110111001110110101100100000010101101110011101101011001000000101011011 x
0s
0q
1o
0n
1k
1j
1g
1f
1c
0b
1`
1^
0]
0\
0Y
0X
1W
1V
1P
1O
1N
0K
0J
0I
1G
0D
0C
0@
0:
07
#135000
0"
#136000
1"
b110111011110011110011111000001001101110111100111100111110000010011011101111001111001111100000100110111011110011110011111000001001001010111000001110000111110010 w
b1001110110101100100000010101101110011101101011001000000101011011100111011010110010000001010110111001110110101100100000010101101111100100011110101110011100110001 x
b1110001100100110100010100110110 v
#137000
0"
#138000
1"
b110111011110011110011111000001001101110111100111100111110000010011011101111001111001111100000100100101011100000111000011111001001001010111000001110000111110010 w
b1001110110101100100000010101101110011101101011001000000101011011100111011010110010000001010110111110010001111010111001110011000111100100011110101110011100110001 x
#139000
0"
#140000
1"
b110111011110011110011111000001001101110111100111100111110000010010010101110000011100001111100100100101011100000111000011111001001001010111000001110000111110010 w
b1001110110101100100000010101101110011101101011001000000101011011111001000111101011100111001100011110010001111010111001110011000111100100011110101110011100110001 x
#141000
0"
#142000
1"
b110111011110011110011111000001001001010111000001110000111110010010010101110000011100001111100100100101011100000111000011111001001001010111000001110000111110010 w
b1001110110101100100000010101101111100100011110101110011100110001111001000111101011100111001100011110010001111010111001110011000111100100011110101110011100110001 x
#143000
0"
#144000
1"
b100101011100000111000011111001001001010111000001110000111110010010010101110000011100001111100100100101011100000111000011111001001001010111000001110000111110010 w
b1110010001111010111001110011000111100100011110101110011100110001111001000111101011100111001100011110010001111010111001110011000111100100011110101110011100110001 x
0t
1r
0p
1n
0l
1h
0e
1d
0_
1[
0Z
1T
0S
1R
1Q
0P
0O
1K
1I
0E
1D
1B
1@
0>
0=
09
17
06
#145000
0"
#146000
1"
b100101011100000111000011111001001001010111000001110000111110010010010101110000011100001111100100100101011100000111000011111001000100010001101010110101111001101 w
b1110010001111010111001110011000111100100011110101110011100110001111001000111101011100111001100011110010001111010111001110011000111100010010110110111011001100100 x
b1110110010000001001110101010010 v
#147000
0"
#148000
1"
b100101011100000111000011111001001001010111000001110000111110010010010101110000011100001111100100010001000110101011010111100110100100010001101010110101111001101 w
b1110010001111010111001110011000111100100011110101110011100110001111001000111101011100111001100011110001001011011011101100110010011100010010110110111011001100100 x
#149000
0"
#150000
1"
b100101011100000111000011111001001001010111000001110000111110010001000100011010101101011110011010010001000110101011010111100110100100010001101010110101111001101 w
b1110010001111010111001110011000111100100011110101110011100110001111000100101101101110110011001001110001001011011011101100110010011100010010110110111011001100100 x
#151000
0"
#152000
1"
b100101011100000111000011111001000100010001101010110101111001101001000100011010101101011110011010010001000110101011010111100110100100010001101010110101111001101 w
b1110010001111010111001110011000111100010010110110111011001100100111000100101101101110110011001001110001001011011011101100110010011100010010110110111011001100100 x
#153000
0"
#154000
1"
b10001000110101011010111100110100100010001101010110101111001101001000100011010101101011110011010010001000110101011010111100110100100010001101010110101111001101 w
b1110001001011011011101100110010011100010010110110111011001100100111000100101101101110110011001001110001001011011011101100110010011100010010110110111011001100100 x
1s
0r
1q
1m
0g
0f
0d
1Z
1Y
1X
0V
1S
0R
1O
0N
0M
0L
0K
1E
0D
1C
0?
1>
1=
0;
1:
19
18
07
#155000
0"
#156000
1"
b10001000110101011010111100110100100010001101010110101111001101001000100011010101101011110011010010001000110101011010111100110100011100110101101110100000101011 w
b1110001001011011011101100110010011100010010110110111011001100100111000100101101101110110011001001110001001011011011101100110010010111110010110100001011011101010 x
b1001000011011011001101000010100 v
#157000
0"
#158000
1"
b10001000110101011010111100110100100010001101010110101111001101001000100011010101101011110011010001110011010110111010000010101100011100110101101110100000101011 w
b1110001001011011011101100110010011100010010110110111011001100100111000100101101101110110011001001011111001011010000101101110101010111110010110100001011011101010 x
#159000
0"
#160000
1"
b10001000110101011010111100110100100010001101010110101111001101000111001101011011101000001010110001110011010110111010000010101100011100110101101110100000101011 w
b1110001001011011011101100110010011100010010110110111011001100100101111100101101000010110111010101011111001011010000101101110101010111110010110100001011011101010 x
#161000
0"
#162000
1"
b10001000110101011010111100110100011100110101101110100000101011000111001101011011101000001010110001110011010110111010000010101100011100110101101110100000101011 w
b1110001001011011011101100110010010111110010110100001011011101010101111100101101000010110111010101011111001011010000101101110101010111110010110100001011011101010 x
#163000
0"
#164000
1"
b1110011010110111010000010101100011100110101101110100000101011000111001101011011101000001010110001110011010110111010000010101100011100110101101110100000101011 w
b1011111001011010000101101110101010111110010110100001011011101010101111100101101000010110111010101011111001011010000101101110101010111110010110100001011011101010 x
1r
0q
1p
1l
0k
0j
1f
1e
1_
1]
0[
0Z
0Y
0X
1V
0U
0S
0Q
1P
0O
1M
1K
0G
0F
0E
1D
0C
0B
1?
0=
1<
08
17
15
#165000
0"
#166000
1"
b1110011010110111010000010101100011100110101101110100000101011000111001101011011101000001010110001110011010110111010000010101110101101011100010000101010010001 w
b1011111001011010000101101110101010111110010110100001011011101010101111100101101000010110111010101011111001011010000101101110101001100000111110101101000111110110 x
b1011101100000011110100101001110 v
#167000
0"
#168000
1"
b1110011010110111010000010101100011100110101101110100000101011000111001101011011101000001010111010110101110001000010101001000110101101011100010000101010010001 w
b1011111001011010000101101110101010111110010110100001011011101010101111100101101000010110111010100110000011111010110100011111011001100000111110101101000111110110 x
#169000
0"
#170000
1"
b1110011010110111010000010101100011100110101101110100000101011101011010111000100001010100100011010110101110001000010101001000110101101011100010000101010010001 w
b1011111001011010000101101110101010111110010110100001011011101010011000001111101011010001111101100110000011111010110100011111011001100000111110101101000111110110 x
#171000
0"
#172000
1"
b1110011010110111010000010101110101101011100010000101010010001101011010111000100001010100100011010110101110001000010101001000110101101011100010000101010010001 w
b1011111001011010000101101110101001100000111110101101000111110110011000001111101011010001111101100110000011111010110100011111011001100000111110101101000111110110 x
#173000
0"
